2019-10-17T12:46:55.1777050+03:00  [INF] Entity Framework Core "2.1.1-rtm-30846" initialized '"RegistrationContext"' using provider '"Microsoft.EntityFrameworkCore.SqlServer"' with options: "None" (9958f5bb)
2019-10-17T12:46:55.5023367+03:00  [INF] Executed DbCommand ("55"ms) [Parameters=[""], CommandType='Text', CommandTimeout='30']"
""IF EXISTS (SELECT * FROM INFORMATION_SCHEMA.TABLES WHERE TABLE_TYPE = 'BASE TABLE') SELECT 1 ELSE SELECT 0" (0723d8ff)
2019-10-17T12:46:55.6087553+03:00  [INF] Executed DbCommand ("3"ms) [Parameters=[""], CommandType='Text', CommandTimeout='30']"
""SELECT CASE
    WHEN EXISTS (
        SELECT 1
        FROM [Registration] AS [r])
    THEN CAST(1 AS BIT) ELSE CAST(0 AS BIT)
END" (0723d8ff)
2019-10-17T12:46:55.9342732+03:00 0HLQISRP5VIA7:00000001 [INF] Request starting HTTP/1.1 DEBUG http://localhost:58319/  0 (ca22a1cb)
2019-10-17T12:46:55.9342724+03:00 0HLQISRP5VIA8:00000001 [INF] Request starting HTTP/1.1 GET http://localhost:44395/   (ca22a1cb)
2019-10-17T12:46:55.9810460+03:00 0HLQISRP5VIA7:00000001 [INF] Request finished in 49.0754ms 200  (791a596a)
2019-10-17T12:46:56.1325711+03:00 0HLQISRP5VIA8:00000001 [INF] Route matched with "{action = \"Index\", controller = \"Home\"}". Executing action "IgnitisTask.Controllers.HomeController.Index (IgnitisTask)" (a44c0341)
2019-10-17T12:46:56.1452272+03:00 0HLQISRP5VIA8:00000001 [INF] Executing action method "IgnitisTask.Controllers.HomeController.Index (IgnitisTask)" - Validation state: Valid (dad538d7)
2019-10-17T12:46:56.1603657+03:00 0HLQISRP5VIA8:00000001 [INF] Entity Framework Core "2.1.1-rtm-30846" initialized '"RegistrationContext"' using provider '"Microsoft.EntityFrameworkCore.SqlServer"' with options: "None" (9958f5bb)
2019-10-17T12:46:56.2110615+03:00 0HLQISRP5VIA8:00000001 [INF] Executed DbCommand ("9"ms) [Parameters=[""], CommandType='Text', CommandTimeout='30']"
""SELECT [o].[Id], [o].[Name]
FROM [Registration] AS [o]" (0723d8ff)
2019-10-17T12:46:56.2562200+03:00 0HLQISRP5VIA8:00000001 [INF] Executed action method "IgnitisTask.Controllers.HomeController.Index (IgnitisTask)", returned result "Microsoft.AspNetCore.Mvc.ViewResult" in 105.4448ms. (50a9e262)
2019-10-17T12:46:56.2750121+03:00 0HLQISRP5VIA8:00000001 [INF] Executing ViewResult, running view "Index". (c83d0e25)
2019-10-17T12:46:56.3639470+03:00 0HLQISRP5VIA8:00000001 [INF] Executed ViewResult - view "Index" executed in 97.6306ms. (f66409e9)
2019-10-17T12:46:56.3689912+03:00 0HLQISRP5VIA8:00000001 [INF] Executed action "IgnitisTask.Controllers.HomeController.Index (IgnitisTask)" in 231.6837ms (afa2e885)
2019-10-17T12:46:56.3790370+03:00 0HLQISRP5VIA8:00000001 [INF] Request finished in 447.0771ms 200 text/html; charset=utf-8 (791a596a)
2019-10-17T12:46:56.3971527+03:00 0HLQISRP5VIA7:00000002 [INF] Request starting HTTP/1.1 GET http://localhost:44395/lib/bootstrap/dist/css/bootstrap.css   (ca22a1cb)
2019-10-17T12:46:56.4003292+03:00 0HLQISRP5VIA8:00000002 [INF] Request starting HTTP/1.1 GET http://localhost:44395/css/site.css   (ca22a1cb)
2019-10-17T12:46:56.4041659+03:00 0HLQISRP5VIA9:00000001 [INF] Request starting HTTP/1.1 GET http://localhost:44395/lib/jquery/dist/jquery.js   (ca22a1cb)
2019-10-17T12:46:56.4085276+03:00 0HLQISRP5VIAA:00000001 [INF] Request starting HTTP/1.1 GET http://localhost:44395/js/site.js?v=4q1jwFhaPaZgr8WAUSrux6hAuh0XDg9kPS3xIVq36I0   (ca22a1cb)
2019-10-17T12:46:56.4115409+03:00 0HLQISRP5VIAB:00000001 [INF] Request starting HTTP/1.1 GET http://localhost:44395/lib/bootstrap/dist/js/bootstrap.js   (ca22a1cb)
2019-10-17T12:46:56.4193601+03:00 0HLQISRP5VIA7:00000002 [INF] The file "/lib/bootstrap/dist/css/bootstrap.css" was not modified (f1f8d725)
2019-10-17T12:46:56.4201717+03:00 0HLQISRP5VIA9:00000001 [INF] The file "/lib/jquery/dist/jquery.js" was not modified (f1f8d725)
2019-10-17T12:46:56.4248945+03:00 0HLQISRP5VIAA:00000001 [INF] The file "/js/site.js" was not modified (f1f8d725)
2019-10-17T12:46:56.4256991+03:00 0HLQISRP5VIAB:00000001 [INF] The file "/lib/bootstrap/dist/js/bootstrap.js" was not modified (f1f8d725)
2019-10-17T12:46:56.4282139+03:00 0HLQISRP5VIA8:00000002 [INF] The file "/css/site.css" was not modified (f1f8d725)
2019-10-17T12:46:56.4413732+03:00 0HLQISRP5VIA9:00000001 [INF] Request finished in 27.6137ms 304 application/javascript (791a596a)
2019-10-17T12:46:56.4423325+03:00 0HLQISRP5VIA7:00000002 [INF] Request finished in 43.0694ms 304 text/css (791a596a)
2019-10-17T12:46:56.4476327+03:00 0HLQISRP5VIAA:00000001 [INF] Request finished in 23.316ms 304 application/javascript (791a596a)
2019-10-17T12:46:56.4497837+03:00 0HLQISRP5VIAB:00000001 [INF] Request finished in 19.477ms 304 application/javascript (791a596a)
2019-10-17T12:46:56.4509909+03:00 0HLQISRP5VIA8:00000002 [INF] Request finished in 38.1034ms 304 text/css (791a596a)
2019-10-17T12:46:58.1046139+03:00 0HLQISRP5VIA7:00000003 [INF] Request starting HTTP/1.1 GET http://localhost:44395/RegPoz/1   (ca22a1cb)
2019-10-17T12:46:58.1204961+03:00 0HLQISRP5VIA7:00000003 [INF] Route matched with "{action = \"Details\", controller = \"Home\"}". Executing action "IgnitisTask.Controllers.HomeController.Details (IgnitisTask)" (a44c0341)
2019-10-17T12:46:58.1398146+03:00 0HLQISRP5VIA7:00000003 [INF] Executing action method "IgnitisTask.Controllers.HomeController.Details (IgnitisTask)" with arguments (["1"]) - Validation state: Valid (4e3479ed)
2019-10-17T12:46:58.1465199+03:00 0HLQISRP5VIA7:00000003 [INF] Entity Framework Core "2.1.1-rtm-30846" initialized '"RegistrationContext"' using provider '"Microsoft.EntityFrameworkCore.SqlServer"' with options: "None" (9958f5bb)
2019-10-17T12:46:58.2615687+03:00 0HLQISRP5VIA7:00000003 [INF] Executed DbCommand ("22"ms) [Parameters=["@__registrationId_0='?' (DbType = Int32)"], CommandType='Text', CommandTimeout='30']"
""SELECT [o].[RegistrationId], [o].[AttributeId], [o.Registration].[Id], [o.Registration].[Name], [o.Attribute].[Id], [o.Attribute].[IsBoolean], [o.Attribute].[IsDropdown], [o.Attribute].[IsNumeric], [o.Attribute].[IsSelected], [o.Attribute].[IsString], [o.Attribute].[Name], [o.Attribute].[OptionSetId], [o.Attribute].[SelectedOptionId], [o.Attribute.OptionSet].[Id], [o.Attribute.OptionSet].[Name]
FROM [RegistrationAttribute] AS [o]
INNER JOIN [Registration] AS [o.Registration] ON [o].[RegistrationId] = [o.Registration].[Id]
INNER JOIN [Attribute] AS [o.Attribute] ON [o].[AttributeId] = [o.Attribute].[Id]
INNER JOIN [OptionSet] AS [o.Attribute.OptionSet] ON [o.Attribute].[OptionSetId] = [o.Attribute.OptionSet].[Id]
WHERE [o].[RegistrationId] = @__registrationId_0
ORDER BY [o.Attribute.OptionSet].[Id]" (0723d8ff)
2019-10-17T12:46:58.3444209+03:00 0HLQISRP5VIA7:00000003 [INF] Executed DbCommand ("7"ms) [Parameters=["@__registrationId_0='?' (DbType = Int32)"], CommandType='Text', CommandTimeout='30']"
""SELECT [o.Attribute.OptionSet.Options].[Id], [o.Attribute.OptionSet.Options].[Name], [o.Attribute.OptionSet.Options].[OptionSetId], [o.Attribute.OptionSet.Options].[Value]
FROM [Option] AS [o.Attribute.OptionSet.Options]
INNER JOIN (
    SELECT DISTINCT [o.Attribute.OptionSet0].[Id]
    FROM [RegistrationAttribute] AS [o0]
    INNER JOIN [Registration] AS [o.Registration0] ON [o0].[RegistrationId] = [o.Registration0].[Id]
    INNER JOIN [Attribute] AS [o.Attribute0] ON [o0].[AttributeId] = [o.Attribute0].[Id]
    INNER JOIN [OptionSet] AS [o.Attribute.OptionSet0] ON [o.Attribute0].[OptionSetId] = [o.Attribute.OptionSet0].[Id]
    WHERE [o0].[RegistrationId] = @__registrationId_0
) AS [t] ON [o.Attribute.OptionSet.Options].[OptionSetId] = [t].[Id]
ORDER BY [t].[Id]" (0723d8ff)
2019-10-17T12:46:58.3712972+03:00 0HLQISRP5VIA7:00000003 [INF] Executed action method "IgnitisTask.Controllers.HomeController.Details (IgnitisTask)", returned result "Microsoft.AspNetCore.Mvc.ViewResult" in 227.8943ms. (50a9e262)
2019-10-17T12:46:58.3812949+03:00 0HLQISRP5VIA7:00000003 [INF] Executing ViewResult, running view "Details". (c83d0e25)
2019-10-17T12:46:58.5199614+03:00 0HLQISRP5VIA7:00000003 [INF] Executed ViewResult - view "Details" executed in 140.054ms. (f66409e9)
2019-10-17T12:46:58.5262599+03:00 0HLQISRP5VIA7:00000003 [INF] Executed action "IgnitisTask.Controllers.HomeController.Details (IgnitisTask)" in 401.6926ms (afa2e885)
2019-10-17T12:46:58.5346753+03:00 0HLQISRP5VIA7:00000003 [INF] Request finished in 428.7856ms 200 text/html; charset=utf-8 (791a596a)
2019-10-17T12:50:01.9225563+03:00 0HLQISRP5VIAC:00000001 [INF] Request starting HTTP/1.1 GET http://localhost:44395/RegPoz/1   (ca22a1cb)
2019-10-17T12:50:01.9256518+03:00 0HLQISRP5VIAC:00000001 [INF] Route matched with "{action = \"Details\", controller = \"Home\"}". Executing action "IgnitisTask.Controllers.HomeController.Details (IgnitisTask)" (a44c0341)
2019-10-17T12:50:01.9292991+03:00 0HLQISRP5VIAC:00000001 [INF] Executing action method "IgnitisTask.Controllers.HomeController.Details (IgnitisTask)" with arguments (["1"]) - Validation state: Valid (4e3479ed)
2019-10-17T12:50:01.9325990+03:00 0HLQISRP5VIAC:00000001 [INF] Entity Framework Core "2.1.1-rtm-30846" initialized '"RegistrationContext"' using provider '"Microsoft.EntityFrameworkCore.SqlServer"' with options: "None" (9958f5bb)
2019-10-17T12:50:01.9409626+03:00 0HLQISRP5VIAC:00000001 [INF] Executed DbCommand ("4"ms) [Parameters=["@__registrationId_0='?' (DbType = Int32)"], CommandType='Text', CommandTimeout='30']"
""SELECT [o].[RegistrationId], [o].[AttributeId], [o.Registration].[Id], [o.Registration].[Name], [o.Attribute].[Id], [o.Attribute].[IsBoolean], [o.Attribute].[IsDropdown], [o.Attribute].[IsNumeric], [o.Attribute].[IsSelected], [o.Attribute].[IsString], [o.Attribute].[Name], [o.Attribute].[OptionSetId], [o.Attribute].[SelectedOptionId], [o.Attribute.OptionSet].[Id], [o.Attribute.OptionSet].[Name]
FROM [RegistrationAttribute] AS [o]
INNER JOIN [Registration] AS [o.Registration] ON [o].[RegistrationId] = [o.Registration].[Id]
INNER JOIN [Attribute] AS [o.Attribute] ON [o].[AttributeId] = [o.Attribute].[Id]
INNER JOIN [OptionSet] AS [o.Attribute.OptionSet] ON [o.Attribute].[OptionSetId] = [o.Attribute.OptionSet].[Id]
WHERE [o].[RegistrationId] = @__registrationId_0
ORDER BY [o.Attribute.OptionSet].[Id]" (0723d8ff)
2019-10-17T12:50:01.9508613+03:00 0HLQISRP5VIAC:00000001 [INF] Executed DbCommand ("6"ms) [Parameters=["@__registrationId_0='?' (DbType = Int32)"], CommandType='Text', CommandTimeout='30']"
""SELECT [o.Attribute.OptionSet.Options].[Id], [o.Attribute.OptionSet.Options].[Name], [o.Attribute.OptionSet.Options].[OptionSetId], [o.Attribute.OptionSet.Options].[Value]
FROM [Option] AS [o.Attribute.OptionSet.Options]
INNER JOIN (
    SELECT DISTINCT [o.Attribute.OptionSet0].[Id]
    FROM [RegistrationAttribute] AS [o0]
    INNER JOIN [Registration] AS [o.Registration0] ON [o0].[RegistrationId] = [o.Registration0].[Id]
    INNER JOIN [Attribute] AS [o.Attribute0] ON [o0].[AttributeId] = [o.Attribute0].[Id]
    INNER JOIN [OptionSet] AS [o.Attribute.OptionSet0] ON [o.Attribute0].[OptionSetId] = [o.Attribute.OptionSet0].[Id]
    WHERE [o0].[RegistrationId] = @__registrationId_0
) AS [t] ON [o.Attribute.OptionSet.Options].[OptionSetId] = [t].[Id]
ORDER BY [t].[Id]" (0723d8ff)
2019-10-17T12:50:01.9543902+03:00 0HLQISRP5VIAC:00000001 [INF] Executed action method "IgnitisTask.Controllers.HomeController.Details (IgnitisTask)", returned result "Microsoft.AspNetCore.Mvc.ViewResult" in 22.3224ms. (50a9e262)
2019-10-17T12:50:04.0807424+03:00 0HLQISRP5VIAC:00000001 [INF] Executing ViewResult, running view "Details". (c83d0e25)
2019-10-17T12:50:04.1055245+03:00 0HLQISRP5VIAC:00000001 [INF] Executed ViewResult - view "Details" executed in 2147.5658ms. (f66409e9)
2019-10-17T12:50:04.1091486+03:00 0HLQISRP5VIAC:00000001 [INF] Executed action "IgnitisTask.Controllers.HomeController.Details (IgnitisTask)" in 2179.9603ms (afa2e885)
2019-10-17T12:50:04.1129324+03:00 0HLQISRP5VIAC:00000001 [INF] Request finished in 2189.8822ms 200 text/html; charset=utf-8 (791a596a)
2019-10-17T12:50:04.1682731+03:00 0HLQISRP5VIAC:00000002 [INF] Request starting HTTP/1.1 GET http://localhost:44395/favicon.ico   (ca22a1cb)
2019-10-17T12:50:04.1782039+03:00 0HLQISRP5VIAC:00000002 [INF] Sending file. Request path: '"/favicon.ico"'. Physical path: '"C:\Users\Rimgaudas\Documents\Visual Studio 2017\Projects\IgnitisTask\IgnitisTask\wwwroot\favicon.ico"' (27b0a520)
2019-10-17T12:50:04.1818404+03:00 0HLQISRP5VIAC:00000002 [INF] Request finished in 13.4578ms 200 image/x-icon (791a596a)
2019-10-17T12:50:33.5269587+03:00 0HLQISRP5VIAC:00000003 [INF] Request starting HTTP/1.1 POST http://localhost:44395/RegPoz application/x-www-form-urlencoded 312 (ca22a1cb)
2019-10-17T12:50:33.5382726+03:00 0HLQISRP5VIAC:00000003 [INF] Route matched with "{action = \"SaveChanges\", controller = \"Home\"}". Executing action "IgnitisTask.Controllers.HomeController.SaveChanges (IgnitisTask)" (a44c0341)
2019-10-17T12:50:33.5721638+03:00 0HLQISRP5VIAC:00000003 [INF] Executing action method "IgnitisTask.Controllers.HomeController.SaveChanges (IgnitisTask)" with arguments (["IgnitisTask.Models.RegistrationDTO"]) - Validation state: Valid (4e3479ed)
2019-10-17T12:50:33.5789644+03:00 0HLQISRP5VIAC:00000003 [INF] Entity Framework Core "2.1.1-rtm-30846" initialized '"RegistrationContext"' using provider '"Microsoft.EntityFrameworkCore.SqlServer"' with options: "None" (9958f5bb)
2019-10-17T12:50:33.5951981+03:00 0HLQISRP5VIAC:00000003 [INF] Executed DbCommand ("2"ms) [Parameters=["@__attribute_Id_0='?' (DbType = Int32)"], CommandType='Text', CommandTimeout='30']"
""SELECT TOP(1) [o].[Id], [o].[IsBoolean], [o].[IsDropdown], [o].[IsNumeric], [o].[IsSelected], [o].[IsString], [o].[Name], [o].[OptionSetId], [o].[SelectedOptionId]
FROM [Attribute] AS [o]
WHERE [o].[Id] = @__attribute_Id_0" (0723d8ff)
2019-10-17T12:50:33.6575485+03:00 0HLQISRP5VIAC:00000003 [INF] Executed DbCommand ("3"ms) [Parameters=["@p1='?' (DbType = Int32), @p0='?' (DbType = Int32)"], CommandType='Text', CommandTimeout='30']"
""SET NOCOUNT ON;
UPDATE [Attribute] SET [SelectedOptionId] = @p0
WHERE [Id] = @p1;
SELECT @@ROWCOUNT;" (0723d8ff)
2019-10-17T12:50:33.6699806+03:00 0HLQISRP5VIAC:00000003 [INF] Executed DbCommand ("1"ms) [Parameters=["@__attribute_Id_0='?' (DbType = Int32)"], CommandType='Text', CommandTimeout='30']"
""SELECT TOP(1) [o].[Id], [o].[IsBoolean], [o].[IsDropdown], [o].[IsNumeric], [o].[IsSelected], [o].[IsString], [o].[Name], [o].[OptionSetId], [o].[SelectedOptionId]
FROM [Attribute] AS [o]
WHERE [o].[Id] = @__attribute_Id_0" (0723d8ff)
2019-10-17T12:50:33.6749515+03:00 0HLQISRP5VIAC:00000003 [INF] Executed DbCommand ("1"ms) [Parameters=["@p1='?' (DbType = Int32), @p0='?' (DbType = Int32)"], CommandType='Text', CommandTimeout='30']"
""SET NOCOUNT ON;
UPDATE [Attribute] SET [SelectedOptionId] = @p0
WHERE [Id] = @p1;
SELECT @@ROWCOUNT;" (0723d8ff)
2019-10-17T12:50:33.6789477+03:00 0HLQISRP5VIAC:00000003 [INF] Executed action method "IgnitisTask.Controllers.HomeController.SaveChanges (IgnitisTask)", returned result "Microsoft.AspNetCore.Mvc.RedirectToActionResult" in 104.0319ms. (50a9e262)
2019-10-17T12:50:33.6826683+03:00 0HLQISRP5VIAC:00000003 [INF] Executing RedirectResult, redirecting to "/RegPoz/1". (d98d540e)
2019-10-17T12:50:33.6854203+03:00 0HLQISRP5VIAC:00000003 [INF] Executed action "IgnitisTask.Controllers.HomeController.SaveChanges (IgnitisTask)" in 144.6373ms (afa2e885)
2019-10-17T12:50:33.6884864+03:00 0HLQISRP5VIAC:00000003 [INF] Request finished in 162.1941ms 302  (791a596a)
2019-10-17T12:50:33.6929514+03:00 0HLQISRP5VIAC:00000004 [INF] Request starting HTTP/1.1 GET http://localhost:44395/RegPoz/1   (ca22a1cb)
2019-10-17T12:50:33.6960666+03:00 0HLQISRP5VIAC:00000004 [INF] Route matched with "{action = \"Details\", controller = \"Home\"}". Executing action "IgnitisTask.Controllers.HomeController.Details (IgnitisTask)" (a44c0341)
2019-10-17T12:50:33.6988276+03:00 0HLQISRP5VIAC:00000004 [INF] Executing action method "IgnitisTask.Controllers.HomeController.Details (IgnitisTask)" with arguments (["1"]) - Validation state: Valid (4e3479ed)
2019-10-17T12:50:33.7019909+03:00 0HLQISRP5VIAC:00000004 [INF] Entity Framework Core "2.1.1-rtm-30846" initialized '"RegistrationContext"' using provider '"Microsoft.EntityFrameworkCore.SqlServer"' with options: "None" (9958f5bb)
2019-10-17T12:50:33.7092453+03:00 0HLQISRP5VIAC:00000004 [INF] Executed DbCommand ("4"ms) [Parameters=["@__registrationId_0='?' (DbType = Int32)"], CommandType='Text', CommandTimeout='30']"
""SELECT [o].[RegistrationId], [o].[AttributeId], [o.Registration].[Id], [o.Registration].[Name], [o.Attribute].[Id], [o.Attribute].[IsBoolean], [o.Attribute].[IsDropdown], [o.Attribute].[IsNumeric], [o.Attribute].[IsSelected], [o.Attribute].[IsString], [o.Attribute].[Name], [o.Attribute].[OptionSetId], [o.Attribute].[SelectedOptionId], [o.Attribute.OptionSet].[Id], [o.Attribute.OptionSet].[Name]
FROM [RegistrationAttribute] AS [o]
INNER JOIN [Registration] AS [o.Registration] ON [o].[RegistrationId] = [o.Registration].[Id]
INNER JOIN [Attribute] AS [o.Attribute] ON [o].[AttributeId] = [o.Attribute].[Id]
INNER JOIN [OptionSet] AS [o.Attribute.OptionSet] ON [o.Attribute].[OptionSetId] = [o.Attribute.OptionSet].[Id]
WHERE [o].[RegistrationId] = @__registrationId_0
ORDER BY [o.Attribute.OptionSet].[Id]" (0723d8ff)
2019-10-17T12:50:33.7173567+03:00 0HLQISRP5VIAC:00000004 [INF] Executed DbCommand ("4"ms) [Parameters=["@__registrationId_0='?' (DbType = Int32)"], CommandType='Text', CommandTimeout='30']"
""SELECT [o.Attribute.OptionSet.Options].[Id], [o.Attribute.OptionSet.Options].[Name], [o.Attribute.OptionSet.Options].[OptionSetId], [o.Attribute.OptionSet.Options].[Value]
FROM [Option] AS [o.Attribute.OptionSet.Options]
INNER JOIN (
    SELECT DISTINCT [o.Attribute.OptionSet0].[Id]
    FROM [RegistrationAttribute] AS [o0]
    INNER JOIN [Registration] AS [o.Registration0] ON [o0].[RegistrationId] = [o.Registration0].[Id]
    INNER JOIN [Attribute] AS [o.Attribute0] ON [o0].[AttributeId] = [o.Attribute0].[Id]
    INNER JOIN [OptionSet] AS [o.Attribute.OptionSet0] ON [o.Attribute0].[OptionSetId] = [o.Attribute.OptionSet0].[Id]
    WHERE [o0].[RegistrationId] = @__registrationId_0
) AS [t] ON [o.Attribute.OptionSet.Options].[OptionSetId] = [t].[Id]
ORDER BY [t].[Id]" (0723d8ff)
2019-10-17T12:50:33.7211721+03:00 0HLQISRP5VIAC:00000004 [INF] Executed action method "IgnitisTask.Controllers.HomeController.Details (IgnitisTask)", returned result "Microsoft.AspNetCore.Mvc.ViewResult" in 19.2358ms. (50a9e262)
2019-10-17T12:50:33.9944084+03:00 0HLQISRP5VIAC:00000004 [INF] Executing ViewResult, running view "Details". (c83d0e25)
2019-10-17T12:50:34.0226095+03:00 0HLQISRP5VIAC:00000004 [INF] Executed ViewResult - view "Details" executed in 297.5227ms. (f66409e9)
2019-10-17T12:50:34.0270405+03:00 0HLQISRP5VIAC:00000004 [INF] Executed action "IgnitisTask.Controllers.HomeController.Details (IgnitisTask)" in 326.6345ms (afa2e885)
2019-10-17T12:50:34.0320443+03:00 0HLQISRP5VIAC:00000004 [INF] Request finished in 337.4441ms 200 text/html; charset=utf-8 (791a596a)
2019-10-17T12:51:01.1598473+03:00 0HLQISRP5VIAC:00000005 [INF] Request starting HTTP/1.1 GET http://localhost:44395/RegPoz   (ca22a1cb)
2019-10-17T12:51:01.1644769+03:00 0HLQISRP5VIAC:00000005 [INF] Route matched with "{action = \"Index\", controller = \"Home\"}". Executing action "IgnitisTask.Controllers.HomeController.Index (IgnitisTask)" (a44c0341)
2019-10-17T12:51:01.1674120+03:00 0HLQISRP5VIAC:00000005 [INF] Executing action method "IgnitisTask.Controllers.HomeController.Index (IgnitisTask)" - Validation state: Valid (dad538d7)
2019-10-17T12:51:01.1704906+03:00 0HLQISRP5VIAC:00000005 [INF] Entity Framework Core "2.1.1-rtm-30846" initialized '"RegistrationContext"' using provider '"Microsoft.EntityFrameworkCore.SqlServer"' with options: "None" (9958f5bb)
2019-10-17T12:51:01.1745737+03:00 0HLQISRP5VIAC:00000005 [INF] Executed DbCommand ("1"ms) [Parameters=[""], CommandType='Text', CommandTimeout='30']"
""SELECT [o].[Id], [o].[Name]
FROM [Registration] AS [o]" (0723d8ff)
2019-10-17T12:51:01.1778023+03:00 0HLQISRP5VIAC:00000005 [INF] Executed action method "IgnitisTask.Controllers.HomeController.Index (IgnitisTask)", returned result "Microsoft.AspNetCore.Mvc.ViewResult" in 7.5924ms. (50a9e262)
2019-10-17T12:51:01.1806939+03:00 0HLQISRP5VIAC:00000005 [INF] Executing ViewResult, running view "Index". (c83d0e25)
2019-10-17T12:51:01.1875326+03:00 0HLQISRP5VIAC:00000005 [INF] Executed ViewResult - view "Index" executed in 3.6099ms. (f66409e9)
2019-10-17T12:51:01.1905460+03:00 0HLQISRP5VIAC:00000005 [INF] Executed action "IgnitisTask.Controllers.HomeController.Index (IgnitisTask)" in 23.0686ms (afa2e885)
2019-10-17T12:51:01.1941805+03:00 0HLQISRP5VIAC:00000005 [INF] Request finished in 36.8426ms 200 text/html; charset=utf-8 (791a596a)
2019-10-17T12:51:03.0931737+03:00 0HLQISRP5VIAC:00000006 [INF] Request starting HTTP/1.1 GET http://localhost:44395/RegPoz/1   (ca22a1cb)
2019-10-17T12:51:03.0959056+03:00 0HLQISRP5VIAC:00000006 [INF] Route matched with "{action = \"Details\", controller = \"Home\"}". Executing action "IgnitisTask.Controllers.HomeController.Details (IgnitisTask)" (a44c0341)
2019-10-17T12:51:03.0988578+03:00 0HLQISRP5VIAC:00000006 [INF] Executing action method "IgnitisTask.Controllers.HomeController.Details (IgnitisTask)" with arguments (["1"]) - Validation state: Valid (4e3479ed)
2019-10-17T12:51:03.1018193+03:00 0HLQISRP5VIAC:00000006 [INF] Entity Framework Core "2.1.1-rtm-30846" initialized '"RegistrationContext"' using provider '"Microsoft.EntityFrameworkCore.SqlServer"' with options: "None" (9958f5bb)
2019-10-17T12:51:03.1063747+03:00 0HLQISRP5VIAC:00000006 [INF] Executed DbCommand ("1"ms) [Parameters=["@__registrationId_0='?' (DbType = Int32)"], CommandType='Text', CommandTimeout='30']"
""SELECT [o].[RegistrationId], [o].[AttributeId], [o.Registration].[Id], [o.Registration].[Name], [o.Attribute].[Id], [o.Attribute].[IsBoolean], [o.Attribute].[IsDropdown], [o.Attribute].[IsNumeric], [o.Attribute].[IsSelected], [o.Attribute].[IsString], [o.Attribute].[Name], [o.Attribute].[OptionSetId], [o.Attribute].[SelectedOptionId], [o.Attribute.OptionSet].[Id], [o.Attribute.OptionSet].[Name]
FROM [RegistrationAttribute] AS [o]
INNER JOIN [Registration] AS [o.Registration] ON [o].[RegistrationId] = [o.Registration].[Id]
INNER JOIN [Attribute] AS [o.Attribute] ON [o].[AttributeId] = [o.Attribute].[Id]
INNER JOIN [OptionSet] AS [o.Attribute.OptionSet] ON [o.Attribute].[OptionSetId] = [o.Attribute.OptionSet].[Id]
WHERE [o].[RegistrationId] = @__registrationId_0
ORDER BY [o.Attribute.OptionSet].[Id]" (0723d8ff)
2019-10-17T12:51:03.1107691+03:00 0HLQISRP5VIAC:00000006 [INF] Executed DbCommand ("1"ms) [Parameters=["@__registrationId_0='?' (DbType = Int32)"], CommandType='Text', CommandTimeout='30']"
""SELECT [o.Attribute.OptionSet.Options].[Id], [o.Attribute.OptionSet.Options].[Name], [o.Attribute.OptionSet.Options].[OptionSetId], [o.Attribute.OptionSet.Options].[Value]
FROM [Option] AS [o.Attribute.OptionSet.Options]
INNER JOIN (
    SELECT DISTINCT [o.Attribute.OptionSet0].[Id]
    FROM [RegistrationAttribute] AS [o0]
    INNER JOIN [Registration] AS [o.Registration0] ON [o0].[RegistrationId] = [o.Registration0].[Id]
    INNER JOIN [Attribute] AS [o.Attribute0] ON [o0].[AttributeId] = [o.Attribute0].[Id]
    INNER JOIN [OptionSet] AS [o.Attribute.OptionSet0] ON [o.Attribute0].[OptionSetId] = [o.Attribute.OptionSet0].[Id]
    WHERE [o0].[RegistrationId] = @__registrationId_0
) AS [t] ON [o.Attribute.OptionSet.Options].[OptionSetId] = [t].[Id]
ORDER BY [t].[Id]" (0723d8ff)
2019-10-17T12:51:03.1139558+03:00 0HLQISRP5VIAC:00000006 [INF] Executed action method "IgnitisTask.Controllers.HomeController.Details (IgnitisTask)", returned result "Microsoft.AspNetCore.Mvc.ViewResult" in 12.4717ms. (50a9e262)
2019-10-17T12:51:03.3021774+03:00 0HLQISRP5VIAC:00000006 [INF] Executing ViewResult, running view "Details". (c83d0e25)
2019-10-17T12:51:03.3445528+03:00 0HLQISRP5VIAC:00000006 [INF] Executed ViewResult - view "Details" executed in 224.7154ms. (f66409e9)
2019-10-17T12:51:03.3485852+03:00 0HLQISRP5VIAC:00000006 [INF] Executed action "IgnitisTask.Controllers.HomeController.Details (IgnitisTask)" in 248.7201ms (afa2e885)
2019-10-17T12:51:03.3520772+03:00 0HLQISRP5VIAC:00000006 [INF] Request finished in 258.89ms 200 text/html; charset=utf-8 (791a596a)
2019-10-17T12:51:43.0798146+03:00 0HLQISRP5VIAC:00000007 [INF] Request starting HTTP/1.1 GET http://localhost:44395/RegPoz   (ca22a1cb)
2019-10-17T12:51:43.0827091+03:00 0HLQISRP5VIAC:00000007 [INF] Route matched with "{action = \"Index\", controller = \"Home\"}". Executing action "IgnitisTask.Controllers.HomeController.Index (IgnitisTask)" (a44c0341)
2019-10-17T12:51:43.0854710+03:00 0HLQISRP5VIAC:00000007 [INF] Executing action method "IgnitisTask.Controllers.HomeController.Index (IgnitisTask)" - Validation state: Valid (dad538d7)
2019-10-17T12:51:43.0882984+03:00 0HLQISRP5VIAC:00000007 [INF] Entity Framework Core "2.1.1-rtm-30846" initialized '"RegistrationContext"' using provider '"Microsoft.EntityFrameworkCore.SqlServer"' with options: "None" (9958f5bb)
2019-10-17T12:51:43.0925013+03:00 0HLQISRP5VIAC:00000007 [INF] Executed DbCommand ("1"ms) [Parameters=[""], CommandType='Text', CommandTimeout='30']"
""SELECT [o].[Id], [o].[Name]
FROM [Registration] AS [o]" (0723d8ff)
2019-10-17T12:51:43.0954506+03:00 0HLQISRP5VIAC:00000007 [INF] Executed action method "IgnitisTask.Controllers.HomeController.Index (IgnitisTask)", returned result "Microsoft.AspNetCore.Mvc.ViewResult" in 7.2918ms. (50a9e262)
2019-10-17T12:51:43.0980096+03:00 0HLQISRP5VIAC:00000007 [INF] Executing ViewResult, running view "Index". (c83d0e25)
2019-10-17T12:51:43.1012458+03:00 0HLQISRP5VIAC:00000007 [INF] Executed ViewResult - view "Index" executed in 3.0357ms. (f66409e9)
2019-10-17T12:51:43.1041005+03:00 0HLQISRP5VIAC:00000007 [INF] Executed action "IgnitisTask.Controllers.HomeController.Index (IgnitisTask)" in 18.5599ms (afa2e885)
2019-10-17T12:51:43.1108917+03:00 0HLQISRP5VIAC:00000007 [INF] Request finished in 28.1415ms 200 text/html; charset=utf-8 (791a596a)
2019-10-17T12:51:44.2688289+03:00 0HLQISRP5VIAC:00000008 [INF] Request starting HTTP/1.1 GET http://localhost:44395/RegPoz/1   (ca22a1cb)
2019-10-17T12:51:44.2718278+03:00 0HLQISRP5VIAC:00000008 [INF] Route matched with "{action = \"Details\", controller = \"Home\"}". Executing action "IgnitisTask.Controllers.HomeController.Details (IgnitisTask)" (a44c0341)
2019-10-17T12:51:44.2746463+03:00 0HLQISRP5VIAC:00000008 [INF] Executing action method "IgnitisTask.Controllers.HomeController.Details (IgnitisTask)" with arguments (["1"]) - Validation state: Valid (4e3479ed)
2019-10-17T12:51:44.2774216+03:00 0HLQISRP5VIAC:00000008 [INF] Entity Framework Core "2.1.1-rtm-30846" initialized '"RegistrationContext"' using provider '"Microsoft.EntityFrameworkCore.SqlServer"' with options: "None" (9958f5bb)
2019-10-17T12:51:44.2852479+03:00 0HLQISRP5VIAC:00000008 [INF] Executed DbCommand ("4"ms) [Parameters=["@__registrationId_0='?' (DbType = Int32)"], CommandType='Text', CommandTimeout='30']"
""SELECT [o].[RegistrationId], [o].[AttributeId], [o.Registration].[Id], [o.Registration].[Name], [o.Attribute].[Id], [o.Attribute].[IsBoolean], [o.Attribute].[IsDropdown], [o.Attribute].[IsNumeric], [o.Attribute].[IsSelected], [o.Attribute].[IsString], [o.Attribute].[Name], [o.Attribute].[OptionSetId], [o.Attribute].[SelectedOptionId], [o.Attribute.OptionSet].[Id], [o.Attribute.OptionSet].[Name]
FROM [RegistrationAttribute] AS [o]
INNER JOIN [Registration] AS [o.Registration] ON [o].[RegistrationId] = [o.Registration].[Id]
INNER JOIN [Attribute] AS [o.Attribute] ON [o].[AttributeId] = [o.Attribute].[Id]
INNER JOIN [OptionSet] AS [o.Attribute.OptionSet] ON [o.Attribute].[OptionSetId] = [o.Attribute.OptionSet].[Id]
WHERE [o].[RegistrationId] = @__registrationId_0
ORDER BY [o.Attribute.OptionSet].[Id]" (0723d8ff)
2019-10-17T12:51:44.2926786+03:00 0HLQISRP5VIAC:00000008 [INF] Executed DbCommand ("4"ms) [Parameters=["@__registrationId_0='?' (DbType = Int32)"], CommandType='Text', CommandTimeout='30']"
""SELECT [o.Attribute.OptionSet.Options].[Id], [o.Attribute.OptionSet.Options].[Name], [o.Attribute.OptionSet.Options].[OptionSetId], [o.Attribute.OptionSet.Options].[Value]
FROM [Option] AS [o.Attribute.OptionSet.Options]
INNER JOIN (
    SELECT DISTINCT [o.Attribute.OptionSet0].[Id]
    FROM [RegistrationAttribute] AS [o0]
    INNER JOIN [Registration] AS [o.Registration0] ON [o0].[RegistrationId] = [o.Registration0].[Id]
    INNER JOIN [Attribute] AS [o.Attribute0] ON [o0].[AttributeId] = [o.Attribute0].[Id]
    INNER JOIN [OptionSet] AS [o.Attribute.OptionSet0] ON [o.Attribute0].[OptionSetId] = [o.Attribute.OptionSet0].[Id]
    WHERE [o0].[RegistrationId] = @__registrationId_0
) AS [t] ON [o.Attribute.OptionSet.Options].[OptionSetId] = [t].[Id]
ORDER BY [t].[Id]" (0723d8ff)
2019-10-17T12:51:44.2966426+03:00 0HLQISRP5VIAC:00000008 [INF] Executed action method "IgnitisTask.Controllers.HomeController.Details (IgnitisTask)", returned result "Microsoft.AspNetCore.Mvc.ViewResult" in 18.6768ms. (50a9e262)
2019-10-17T12:51:44.4926652+03:00 0HLQISRP5VIAC:00000008 [INF] Executing ViewResult, running view "Details". (c83d0e25)
2019-10-17T12:51:44.5179688+03:00 0HLQISRP5VIAC:00000008 [INF] Executed ViewResult - view "Details" executed in 216.8654ms. (f66409e9)
2019-10-17T12:51:44.5228493+03:00 0HLQISRP5VIAC:00000008 [INF] Executed action "IgnitisTask.Controllers.HomeController.Details (IgnitisTask)" in 246.2215ms (afa2e885)
2019-10-17T12:51:44.5303966+03:00 0HLQISRP5VIAC:00000008 [INF] Request finished in 257.3372ms 200 text/html; charset=utf-8 (791a596a)
2019-10-17T13:13:19.1348988+03:00 0HLQITAH0GGGT:00000001 [INF] Request starting HTTP/1.1 GET http://localhost:44395/   (ca22a1cb)
2019-10-17T13:13:19.1348938+03:00 0HLQITAH0GGGS:00000001 [INF] Request starting HTTP/1.1 DEBUG http://localhost:58319/  0 (ca22a1cb)
2019-10-17T13:13:19.1894625+03:00 0HLQITAH0GGGS:00000001 [INF] Request finished in 63.0089ms 200  (791a596a)
2019-10-17T13:13:19.3189736+03:00 0HLQITAH0GGGT:00000001 [INF] Route matched with "{action = \"Index\", controller = \"Home\"}". Executing action "IgnitisTask.Controllers.HomeController.Index (IgnitisTask)" (a44c0341)
2019-10-17T13:13:19.3315068+03:00 0HLQITAH0GGGT:00000001 [INF] Executing action method "IgnitisTask.Controllers.HomeController.Index (IgnitisTask)" - Validation state: Valid (dad538d7)
2019-10-17T13:13:19.5120828+03:00 0HLQITAH0GGGT:00000001 [INF] Entity Framework Core "2.1.1-rtm-30846" initialized '"RegistrationContext"' using provider '"Microsoft.EntityFrameworkCore.SqlServer"' with options: "None" (9958f5bb)
2019-10-17T13:13:19.7499758+03:00 0HLQITAH0GGGT:00000001 [INF] Executed DbCommand ("22"ms) [Parameters=[""], CommandType='Text', CommandTimeout='30']"
""SELECT [o].[Id], [o].[Name]
FROM [Registration] AS [o]" (0723d8ff)
2019-10-17T13:13:19.7686693+03:00 0HLQITAH0GGGT:00000001 [INF] Executed action method "IgnitisTask.Controllers.HomeController.Index (IgnitisTask)", returned result "Microsoft.AspNetCore.Mvc.ViewResult" in 431.5939ms. (50a9e262)
2019-10-17T13:13:19.7878498+03:00 0HLQITAH0GGGT:00000001 [INF] Executing ViewResult, running view "Index". (c83d0e25)
2019-10-17T13:13:19.8723432+03:00 0HLQITAH0GGGT:00000001 [INF] Executed ViewResult - view "Index" executed in 94.9329ms. (f66409e9)
2019-10-17T13:13:19.8759510+03:00 0HLQITAH0GGGT:00000001 [INF] Executed action "IgnitisTask.Controllers.HomeController.Index (IgnitisTask)" in 553.622ms (afa2e885)
2019-10-17T13:13:19.8895393+03:00 0HLQITAH0GGGT:00000001 [INF] Request finished in 762.7601ms 200 text/html; charset=utf-8 (791a596a)
2019-10-17T13:13:31.6181027+03:00 0HLQITAH0GGGS:00000002 [INF] Request starting HTTP/1.1 GET http://localhost:44395/   (ca22a1cb)
2019-10-17T13:13:31.6219866+03:00 0HLQITAH0GGGS:00000002 [INF] Route matched with "{action = \"Index\", controller = \"Home\"}". Executing action "IgnitisTask.Controllers.HomeController.Index (IgnitisTask)" (a44c0341)
2019-10-17T13:13:31.6258305+03:00 0HLQITAH0GGGS:00000002 [INF] Executing action method "IgnitisTask.Controllers.HomeController.Index (IgnitisTask)" - Validation state: Valid (dad538d7)
2019-10-17T13:13:36.1113835+03:00 0HLQITAH0GGGS:00000002 [INF] Entity Framework Core "2.1.1-rtm-30846" initialized '"RegistrationContext"' using provider '"Microsoft.EntityFrameworkCore.SqlServer"' with options: "None" (9958f5bb)
2019-10-17T13:13:36.1630958+03:00 0HLQITAH0GGGS:00000002 [INF] Executed DbCommand ("3"ms) [Parameters=[""], CommandType='Text', CommandTimeout='30']"
""SELECT [o].[Id], [o].[Name]
FROM [Registration] AS [o]" (0723d8ff)
2019-10-17T13:13:46.6699172+03:00 0HLQITAP76V81:00000001 [INF] Request starting HTTP/1.1 GET http://localhost:44395/favicon.ico   (ca22a1cb)
2019-10-17T13:13:46.6978486+03:00 0HLQITAP76V81:00000001 [INF] Sending file. Request path: '"/favicon.ico"'. Physical path: '"C:\Users\Rimgaudas\Documents\Visual Studio 2017\Projects\IgnitisTask\IgnitisTask\wwwroot\favicon.ico"' (27b0a520)
2019-10-17T13:13:46.6983497+03:00 0HLQITAP76V81:00000001 [INF] Request finished in 38.485ms 200 image/x-icon (791a596a)
2019-10-17T13:14:05.1820696+03:00 0HLQITAUNFH3K:00000001 [INF] Request starting HTTP/1.1 GET http://localhost:44395/   (ca22a1cb)
2019-10-17T13:14:05.1820934+03:00 0HLQITAUNFH3J:00000001 [INF] Request starting HTTP/1.1 DEBUG http://localhost:58319/  0 (ca22a1cb)
2019-10-17T13:14:05.2273594+03:00 0HLQITAUNFH3J:00000001 [INF] Request finished in 55.3815ms 200  (791a596a)
2019-10-17T13:14:05.3657031+03:00 0HLQITAUNFH3K:00000001 [INF] Route matched with "{action = \"Index\", controller = \"Home\"}". Executing action "IgnitisTask.Controllers.HomeController.Index (IgnitisTask)" (a44c0341)
2019-10-17T13:14:05.3774438+03:00 0HLQITAUNFH3K:00000001 [INF] Executing action method "IgnitisTask.Controllers.HomeController.Index (IgnitisTask)" - Validation state: Valid (dad538d7)
2019-10-17T13:14:05.5274526+03:00 0HLQITAUNFH3K:00000001 [INF] Entity Framework Core "2.1.1-rtm-30846" initialized '"RegistrationContext"' using provider '"Microsoft.EntityFrameworkCore.SqlServer"' with options: "None" (9958f5bb)
2019-10-17T13:14:05.7655194+03:00 0HLQITAUNFH3K:00000001 [INF] Executed DbCommand ("22"ms) [Parameters=[""], CommandType='Text', CommandTimeout='30']"
""SELECT [o].[Id], [o].[Name]
FROM [Registration] AS [o]" (0723d8ff)
2019-10-17T13:14:05.7849575+03:00 0HLQITAUNFH3K:00000001 [INF] Executed action method "IgnitisTask.Controllers.HomeController.Index (IgnitisTask)", returned result "Microsoft.AspNetCore.Mvc.ViewResult" in 401.7842ms. (50a9e262)
2019-10-17T13:14:05.8039018+03:00 0HLQITAUNFH3K:00000001 [INF] Executing ViewResult, running view "Index". (c83d0e25)
2019-10-17T13:14:05.9029889+03:00 0HLQITAUNFH3K:00000001 [INF] Executed ViewResult - view "Index" executed in 107.0485ms. (f66409e9)
2019-10-17T13:14:05.9083326+03:00 0HLQITAUNFH3K:00000001 [INF] Executed action "IgnitisTask.Controllers.HomeController.Index (IgnitisTask)" in 537.5884ms (afa2e885)
2019-10-17T13:14:05.9217588+03:00 0HLQITAUNFH3K:00000001 [INF] Request finished in 749.3055ms 200 text/html; charset=utf-8 (791a596a)
2019-10-17T13:14:06.0041040+03:00 0HLQITAUNFH3J:00000002 [INF] Request starting HTTP/1.1 GET http://localhost:44395/favicon.ico   (ca22a1cb)
2019-10-17T13:14:06.0167425+03:00 0HLQITAUNFH3J:00000002 [INF] Sending file. Request path: '"/favicon.ico"'. Physical path: '"C:\Users\Rimgaudas\Documents\Visual Studio 2017\Projects\IgnitisTask\IgnitisTask\wwwroot\favicon.ico"' (27b0a520)
2019-10-17T13:14:06.0224881+03:00 0HLQITAUNFH3J:00000002 [INF] Request finished in 17.8401ms 200 image/x-icon (791a596a)
2019-10-17T13:14:15.6436185+03:00 0HLQITAUNFH3K:00000002 [INF] Request starting HTTP/1.1 GET http://localhost:44395/regpoz/1   (ca22a1cb)
2019-10-17T13:14:15.6580804+03:00 0HLQITAUNFH3K:00000002 [INF] Route matched with "{action = \"Details\", controller = \"Home\"}". Executing action "IgnitisTask.Controllers.HomeController.Details (IgnitisTask)" (a44c0341)
2019-10-17T13:14:15.6777876+03:00 0HLQITAUNFH3K:00000002 [INF] Executing action method "IgnitisTask.Controllers.HomeController.Details (IgnitisTask)" with arguments (["1"]) - Validation state: Valid (4e3479ed)
2019-10-17T13:14:15.6936367+03:00 0HLQITAUNFH3K:00000002 [INF] Entity Framework Core "2.1.1-rtm-30846" initialized '"RegistrationContext"' using provider '"Microsoft.EntityFrameworkCore.SqlServer"' with options: "None" (9958f5bb)
2019-10-17T13:14:15.8122425+03:00 0HLQITAUNFH3K:00000002 [INF] Executed DbCommand ("13"ms) [Parameters=["@__registrationId_0='?' (DbType = Int32)"], CommandType='Text', CommandTimeout='30']"
""SELECT [o].[RegistrationId], [o].[AttributeId], [o.Registration].[Id], [o.Registration].[Name], [o.Attribute].[Id], [o.Attribute].[IsBoolean], [o.Attribute].[IsDropdown], [o.Attribute].[IsNumeric], [o.Attribute].[IsSelected], [o.Attribute].[IsString], [o.Attribute].[Name], [o.Attribute].[OptionSetId], [o.Attribute].[SelectedOptionId], [o.Attribute.OptionSet].[Id], [o.Attribute.OptionSet].[Name]
FROM [RegistrationAttribute] AS [o]
INNER JOIN [Registration] AS [o.Registration] ON [o].[RegistrationId] = [o.Registration].[Id]
INNER JOIN [Attribute] AS [o.Attribute] ON [o].[AttributeId] = [o.Attribute].[Id]
INNER JOIN [OptionSet] AS [o.Attribute.OptionSet] ON [o.Attribute].[OptionSetId] = [o.Attribute.OptionSet].[Id]
WHERE [o].[RegistrationId] = @__registrationId_0
ORDER BY [o.Attribute.OptionSet].[Id]" (0723d8ff)
2019-10-17T13:14:27.8997317+03:00 0HLQITAUNFH3K:00000002 [ERR] System.NullReferenceException: Object reference not set to an instance of an object.
   at IgnitisTask.Services.RegistrationService.GetRegistrationAttributesByRegistrationIdAsync(Int32 registrationId) in C:\Users\Rimgaudas\Documents\Visual Studio 2017\Projects\IgnitisTask\IgnitisTask\Services\RegistrationService.cs:line 53 (2ba43e7c)
2019-10-17T13:14:27.9042589+03:00 0HLQITAUNFH3K:00000002 [INF] Executed action method "IgnitisTask.Controllers.HomeController.Details (IgnitisTask)", returned result "Microsoft.AspNetCore.Mvc.ViewResult" in 12223.6716ms. (50a9e262)
2019-10-17T13:14:27.9138144+03:00 0HLQITAUNFH3K:00000002 [INF] Executing ViewResult, running view "Details". (c83d0e25)
2019-10-17T13:14:28.0833653+03:00 0HLQITAUNFH3K:00000002 [INF] Executed action "IgnitisTask.Controllers.HomeController.Details (IgnitisTask)" in 12420.6576ms (afa2e885)
2019-10-17T13:14:28.1180334+03:00 0HLQITAUNFH3K:00000002 [ERR] An unhandled exception has occurred while executing the request. (48a46595)
System.NullReferenceException: Object reference not set to an instance of an object.
   at AspNetCore.Views_Home_Details.<ExecuteAsync>b__17_0() in C:\Users\Rimgaudas\Documents\Visual Studio 2017\Projects\IgnitisTask\IgnitisTask\Views\Home\Details.cshtml:line 33
   at Microsoft.AspNetCore.Razor.Runtime.TagHelpers.TagHelperExecutionContext.GetChildContentAsync(Boolean useCachedResult, HtmlEncoder encoder)
   at Microsoft.AspNetCore.Mvc.TagHelpers.RenderAtEndOfFormTagHelper.ProcessAsync(TagHelperContext context, TagHelperOutput output)
   at Microsoft.AspNetCore.Razor.Runtime.TagHelpers.TagHelperRunner.RunAsync(TagHelperExecutionContext executionContext)
   at AspNetCore.Views_Home_Details.ExecuteAsync()
   at Microsoft.AspNetCore.Mvc.Razor.RazorView.RenderPageCoreAsync(IRazorPage page, ViewContext context)
   at Microsoft.AspNetCore.Mvc.Razor.RazorView.RenderPageAsync(IRazorPage page, ViewContext context, Boolean invokeViewStarts)
   at Microsoft.AspNetCore.Mvc.Razor.RazorView.RenderAsync(ViewContext context)
   at Microsoft.AspNetCore.Mvc.ViewFeatures.ViewExecutor.ExecuteAsync(ViewContext viewContext, String contentType, Nullable`1 statusCode)
   at Microsoft.AspNetCore.Mvc.ViewFeatures.ViewExecutor.ExecuteAsync(ActionContext actionContext, IView view, ViewDataDictionary viewData, ITempDataDictionary tempData, String contentType, Nullable`1 statusCode)
   at Microsoft.AspNetCore.Mvc.ViewFeatures.ViewResultExecutor.ExecuteAsync(ActionContext context, ViewResult result)
   at Microsoft.AspNetCore.Mvc.ViewResult.ExecuteResultAsync(ActionContext context)
   at Microsoft.AspNetCore.Mvc.Internal.ResourceInvoker.InvokeResultAsync(IActionResult result)
   at Microsoft.AspNetCore.Mvc.Internal.ResourceInvoker.InvokeNextResultFilterAsync[TFilter,TFilterAsync]()
   at Microsoft.AspNetCore.Mvc.Internal.ResourceInvoker.Rethrow(ResultExecutedContext context)
   at Microsoft.AspNetCore.Mvc.Internal.ResourceInvoker.ResultNext[TFilter,TFilterAsync](State& next, Scope& scope, Object& state, Boolean& isCompleted)
   at Microsoft.AspNetCore.Mvc.Internal.ResourceInvoker.InvokeResultFilters()
   at Microsoft.AspNetCore.Mvc.Internal.ResourceInvoker.InvokeNextResourceFilter()
   at Microsoft.AspNetCore.Mvc.Internal.ResourceInvoker.Rethrow(ResourceExecutedContext context)
   at Microsoft.AspNetCore.Mvc.Internal.ResourceInvoker.Next(State& next, Scope& scope, Object& state, Boolean& isCompleted)
   at Microsoft.AspNetCore.Mvc.Internal.ResourceInvoker.InvokeFilterPipelineAsync()
   at Microsoft.AspNetCore.Mvc.Internal.ResourceInvoker.InvokeAsync()
   at Microsoft.AspNetCore.Builder.RouterMiddleware.Invoke(HttpContext httpContext)
   at Microsoft.AspNetCore.StaticFiles.StaticFileMiddleware.Invoke(HttpContext context)
   at Microsoft.AspNetCore.Diagnostics.DeveloperExceptionPageMiddleware.Invoke(HttpContext context)
2019-10-17T13:14:28.1735831+03:00 0HLQITAUNFH3K:00000002 [INF] Request finished in 12528.4888ms 500 text/html; charset=utf-8 (791a596a)
2019-10-17T13:14:32.3827381+03:00 0HLQITAUNFH3J:00000003 [INF] Request starting HTTP/1.1 GET http://localhost:44395/regpoz/1   (ca22a1cb)
2019-10-17T13:14:32.3863515+03:00 0HLQITAUNFH3J:00000003 [INF] Route matched with "{action = \"Details\", controller = \"Home\"}". Executing action "IgnitisTask.Controllers.HomeController.Details (IgnitisTask)" (a44c0341)
2019-10-17T13:14:32.3897029+03:00 0HLQITAUNFH3J:00000003 [INF] Executing action method "IgnitisTask.Controllers.HomeController.Details (IgnitisTask)" with arguments (["1"]) - Validation state: Valid (4e3479ed)
2019-10-17T13:14:32.3929050+03:00 0HLQITAUNFH3J:00000003 [INF] Entity Framework Core "2.1.1-rtm-30846" initialized '"RegistrationContext"' using provider '"Microsoft.EntityFrameworkCore.SqlServer"' with options: "None" (9958f5bb)
2019-10-17T13:14:32.3983649+03:00 0HLQITAUNFH3J:00000003 [INF] Executed DbCommand ("1"ms) [Parameters=["@__registrationId_0='?' (DbType = Int32)"], CommandType='Text', CommandTimeout='30']"
""SELECT [o].[RegistrationId], [o].[AttributeId], [o.Registration].[Id], [o.Registration].[Name], [o.Attribute].[Id], [o.Attribute].[IsBoolean], [o.Attribute].[IsDropdown], [o.Attribute].[IsNumeric], [o.Attribute].[IsSelected], [o.Attribute].[IsString], [o.Attribute].[Name], [o.Attribute].[OptionSetId], [o.Attribute].[SelectedOptionId], [o.Attribute.OptionSet].[Id], [o.Attribute.OptionSet].[Name]
FROM [RegistrationAttribute] AS [o]
INNER JOIN [Registration] AS [o.Registration] ON [o].[RegistrationId] = [o.Registration].[Id]
INNER JOIN [Attribute] AS [o.Attribute] ON [o].[AttributeId] = [o.Attribute].[Id]
INNER JOIN [OptionSet] AS [o.Attribute.OptionSet] ON [o.Attribute].[OptionSetId] = [o.Attribute.OptionSet].[Id]
WHERE [o].[RegistrationId] = @__registrationId_0
ORDER BY [o.Attribute.OptionSet].[Id]" (0723d8ff)
2019-10-17T13:14:51.7107639+03:00 0HLQITBCJAFG1:00000001 [INF] Request starting HTTP/1.1 GET http://localhost:44395/favicon.ico   (ca22a1cb)
2019-10-17T13:14:51.7570383+03:00 0HLQITBCJAFG1:00000001 [INF] Sending file. Request path: '"/favicon.ico"'. Physical path: '"C:\Users\Rimgaudas\Documents\Visual Studio 2017\Projects\IgnitisTask\IgnitisTask\wwwroot\favicon.ico"' (27b0a520)
2019-10-17T13:14:51.7613227+03:00 0HLQITBCJAFG1:00000001 [INF] Request finished in 60.4448ms 200 image/x-icon (791a596a)
2019-10-17T13:37:03.8840523+03:00  [INF] Entity Framework Core "2.1.1-rtm-30846" initialized '"RegistrationContext"' using provider '"Microsoft.EntityFrameworkCore.SqlServer"' with options: "None" (9958f5bb)
2019-10-17T13:37:04.0502122+03:00  [INF] Executed DbCommand ("36"ms) [Parameters=[""], CommandType='Text', CommandTimeout='30']"
""IF EXISTS (SELECT * FROM INFORMATION_SCHEMA.TABLES WHERE TABLE_TYPE = 'BASE TABLE') SELECT 1 ELSE SELECT 0" (0723d8ff)
2019-10-17T13:37:04.1225140+03:00  [INF] Executed DbCommand ("2"ms) [Parameters=[""], CommandType='Text', CommandTimeout='30']"
""SELECT CASE
    WHEN EXISTS (
        SELECT 1
        FROM [Registration] AS [r])
    THEN CAST(1 AS BIT) ELSE CAST(0 AS BIT)
END" (0723d8ff)
2019-10-17T13:37:04.2047902+03:00  [INF] Executed DbCommand ("4"ms) [Parameters=["@p0='?' (Size = 4000)"], CommandType='Text', CommandTimeout='30']"
""SET NOCOUNT ON;
INSERT INTO [OptionSet] ([Name])
VALUES (@p0);
SELECT [Id]
FROM [OptionSet]
WHERE @@ROWCOUNT = 1 AND [Id] = scope_identity();" (0723d8ff)
2019-10-17T13:37:04.2130337+03:00  [INF] Executed DbCommand ("0"ms) [Parameters=["@p0='?' (Size = 4000)"], CommandType='Text', CommandTimeout='30']"
""SET NOCOUNT ON;
INSERT INTO [OptionSet] ([Name])
VALUES (@p0);
SELECT [Id]
FROM [OptionSet]
WHERE @@ROWCOUNT = 1 AND [Id] = scope_identity();" (0723d8ff)
2019-10-17T13:37:04.2184641+03:00  [INF] Executed DbCommand ("1"ms) [Parameters=["@p0='?' (Size = 4000)"], CommandType='Text', CommandTimeout='30']"
""SET NOCOUNT ON;
INSERT INTO [Registration] ([Name])
VALUES (@p0);
SELECT [Id]
FROM [Registration]
WHERE @@ROWCOUNT = 1 AND [Id] = scope_identity();" (0723d8ff)
2019-10-17T13:37:04.2471024+03:00  [INF] Executed DbCommand ("12"ms) [Parameters=["@p0='?' (Size = 4000), @p1='?' (DbType = Int32), @p2='?' (Size = 4000), @p3='?' (Size = 4000), @p4='?' (DbType = Int32), @p5='?' (Size = 4000), @p6='?' (Size = 4000), @p7='?' (DbType = Int32), @p8='?' (Size = 4000), @p9='?' (Size = 4000), @p10='?' (DbType = Int32), @p11='?' (Size = 4000)"], CommandType='Text', CommandTimeout='30']"
""SET NOCOUNT ON;
DECLARE @inserted0 TABLE ([Id] int, [_Position] [int]);
MERGE [Option] USING (
VALUES (@p0, @p1, @p2, 0),
(@p3, @p4, @p5, 1),
(@p6, @p7, @p8, 2),
(@p9, @p10, @p11, 3)) AS i ([Name], [OptionSetId], [Value], _Position) ON 1=0
WHEN NOT MATCHED THEN
INSERT ([Name], [OptionSetId], [Value])
VALUES (i.[Name], i.[OptionSetId], i.[Value])
OUTPUT INSERTED.[Id], i._Position
INTO @inserted0;

SELECT [t].[Id] FROM [Option] t
INNER JOIN @inserted0 i ON ([t].[Id] = [i].[Id])
ORDER BY [i].[_Position];" (0723d8ff)
2019-10-17T13:37:04.2720191+03:00  [INF] Executed DbCommand ("2"ms) [Parameters=["@p0='?' (DbType = Boolean), @p1='?' (DbType = Boolean), @p2='?' (DbType = Boolean), @p3='?' (DbType = Boolean), @p4='?' (DbType = Boolean), @p5='?' (Size = 4000), @p6='?' (DbType = Int32), @p7='?' (DbType = Int32)"], CommandType='Text', CommandTimeout='30']"
""SET NOCOUNT ON;
INSERT INTO [Attribute] ([IsBoolean], [IsDropdown], [IsNumeric], [IsSelected], [IsString], [Name], [OptionSetId], [SelectedOptionId])
VALUES (@p0, @p1, @p2, @p3, @p4, @p5, @p6, @p7);
SELECT [Id]
FROM [Attribute]
WHERE @@ROWCOUNT = 1 AND [Id] = scope_identity();" (0723d8ff)
2019-10-17T13:37:04.2778050+03:00  [INF] Executed DbCommand ("0"ms) [Parameters=["@p0='?' (DbType = Boolean), @p1='?' (DbType = Boolean), @p2='?' (DbType = Boolean), @p3='?' (DbType = Boolean), @p4='?' (DbType = Boolean), @p5='?' (Size = 4000), @p6='?' (DbType = Int32), @p7='?' (DbType = Int32)"], CommandType='Text', CommandTimeout='30']"
""SET NOCOUNT ON;
INSERT INTO [Attribute] ([IsBoolean], [IsDropdown], [IsNumeric], [IsSelected], [IsString], [Name], [OptionSetId], [SelectedOptionId])
VALUES (@p0, @p1, @p2, @p3, @p4, @p5, @p6, @p7);
SELECT [Id]
FROM [Attribute]
WHERE @@ROWCOUNT = 1 AND [Id] = scope_identity();" (0723d8ff)
2019-10-17T13:37:04.2944820+03:00  [INF] Executed DbCommand ("2"ms) [Parameters=["@p0='?' (DbType = Int32), @p1='?' (DbType = Int32)"], CommandType='Text', CommandTimeout='30']"
""SET NOCOUNT ON;
INSERT INTO [RegistrationAttribute] ([RegistrationId], [AttributeId])
VALUES (@p0, @p1);" (0723d8ff)
2019-10-17T13:37:04.2978066+03:00  [INF] Executed DbCommand ("0"ms) [Parameters=["@p0='?' (DbType = Int32), @p1='?' (DbType = Int32)"], CommandType='Text', CommandTimeout='30']"
""SET NOCOUNT ON;
INSERT INTO [RegistrationAttribute] ([RegistrationId], [AttributeId])
VALUES (@p0, @p1);" (0723d8ff)
2019-10-17T13:37:04.6843963+03:00 0HLQITNPRIDFD:00000001 [INF] Request starting HTTP/1.1 DEBUG http://localhost:58319/  0 (ca22a1cb)
2019-10-17T13:37:04.6843973+03:00 0HLQITNPRIDFE:00000001 [INF] Request starting HTTP/1.1 GET http://localhost:44395/   (ca22a1cb)
2019-10-17T13:37:04.7314231+03:00 0HLQITNPRIDFD:00000001 [INF] Request finished in 50.4206ms 200  (791a596a)
2019-10-17T13:37:04.8863240+03:00 0HLQITNPRIDFE:00000001 [INF] Route matched with "{action = \"Index\", controller = \"Home\"}". Executing action "IgnitisTask.Controllers.HomeController.Index (IgnitisTask)" (a44c0341)
2019-10-17T13:37:04.9110105+03:00 0HLQITNPRIDFE:00000001 [INF] Executing action method "IgnitisTask.Controllers.HomeController.Index (IgnitisTask)" - Validation state: Valid (dad538d7)
2019-10-17T13:37:04.9329477+03:00 0HLQITNPRIDFE:00000001 [INF] Entity Framework Core "2.1.1-rtm-30846" initialized '"RegistrationContext"' using provider '"Microsoft.EntityFrameworkCore.SqlServer"' with options: "None" (9958f5bb)
2019-10-17T13:37:05.0020007+03:00 0HLQITNPRIDFE:00000001 [INF] Executed DbCommand ("10"ms) [Parameters=[""], CommandType='Text', CommandTimeout='30']"
""SELECT [o].[Id], [o].[Name]
FROM [Registration] AS [o]" (0723d8ff)
2019-10-17T13:37:05.0336657+03:00 0HLQITNPRIDFE:00000001 [INF] Executed action method "IgnitisTask.Controllers.HomeController.Index (IgnitisTask)", returned result "Microsoft.AspNetCore.Mvc.ViewResult" in 116.9656ms. (50a9e262)
2019-10-17T13:37:05.0531570+03:00 0HLQITNPRIDFE:00000001 [INF] Executing ViewResult, running view "Index". (c83d0e25)
2019-10-17T13:37:05.1580720+03:00 0HLQITNPRIDFE:00000001 [INF] Executed ViewResult - view "Index" executed in 110.3182ms. (f66409e9)
2019-10-17T13:37:05.1648535+03:00 0HLQITNPRIDFE:00000001 [INF] Executed action "IgnitisTask.Controllers.HomeController.Index (IgnitisTask)" in 272.4565ms (afa2e885)
2019-10-17T13:37:05.1828218+03:00 0HLQITNPRIDFE:00000001 [INF] Request finished in 502.0437ms 200 text/html; charset=utf-8 (791a596a)
2019-10-17T13:37:05.2415135+03:00 0HLQITNPRIDFD:00000002 [INF] Request starting HTTP/1.1 GET http://localhost:44395/favicon.ico   (ca22a1cb)
2019-10-17T13:37:05.2506276+03:00 0HLQITNPRIDFD:00000002 [INF] Sending file. Request path: '"/favicon.ico"'. Physical path: '"C:\Users\Rimgaudas\Documents\Visual Studio 2017\Projects\IgnitisTask\IgnitisTask\wwwroot\favicon.ico"' (27b0a520)
2019-10-17T13:37:05.2534146+03:00 0HLQITNPRIDFD:00000002 [INF] Request finished in 12.3859ms 200 image/x-icon (791a596a)
2019-10-17T13:37:07.1688671+03:00 0HLQITNPRIDFE:00000002 [INF] Request starting HTTP/1.1 GET http://localhost:44395/RegPoz/1   (ca22a1cb)
2019-10-17T13:37:07.1958472+03:00 0HLQITNPRIDFE:00000002 [INF] Route matched with "{action = \"Details\", controller = \"Home\"}". Executing action "IgnitisTask.Controllers.HomeController.Details (IgnitisTask)" (a44c0341)
2019-10-17T13:37:07.2146881+03:00 0HLQITNPRIDFE:00000002 [INF] Executing action method "IgnitisTask.Controllers.HomeController.Details (IgnitisTask)" with arguments (["1"]) - Validation state: Valid (4e3479ed)
2019-10-17T13:37:07.2220649+03:00 0HLQITNPRIDFE:00000002 [INF] Entity Framework Core "2.1.1-rtm-30846" initialized '"RegistrationContext"' using provider '"Microsoft.EntityFrameworkCore.SqlServer"' with options: "None" (9958f5bb)
2019-10-17T13:37:07.3600382+03:00 0HLQITNPRIDFE:00000002 [INF] Executed DbCommand ("27"ms) [Parameters=["@__registrationId_0='?' (DbType = Int32)"], CommandType='Text', CommandTimeout='30']"
""SELECT [o].[RegistrationId], [o].[AttributeId], [o.Registration].[Id], [o.Registration].[Name], [o.Attribute].[Id], [o.Attribute].[IsBoolean], [o.Attribute].[IsDropdown], [o.Attribute].[IsNumeric], [o.Attribute].[IsSelected], [o.Attribute].[IsString], [o.Attribute].[Name], [o.Attribute].[OptionSetId], [o.Attribute].[SelectedOptionId], [o.Attribute.OptionSet].[Id], [o.Attribute.OptionSet].[Name]
FROM [RegistrationAttribute] AS [o]
INNER JOIN [Registration] AS [o.Registration] ON [o].[RegistrationId] = [o.Registration].[Id]
INNER JOIN [Attribute] AS [o.Attribute] ON [o].[AttributeId] = [o.Attribute].[Id]
INNER JOIN [OptionSet] AS [o.Attribute.OptionSet] ON [o.Attribute].[OptionSetId] = [o.Attribute.OptionSet].[Id]
WHERE [o].[RegistrationId] = @__registrationId_0
ORDER BY [o.Attribute.OptionSet].[Id]" (0723d8ff)
2019-10-17T13:37:07.4052409+03:00 0HLQITNPRIDFE:00000002 [INF] Executed DbCommand ("6"ms) [Parameters=["@__registrationId_0='?' (DbType = Int32)"], CommandType='Text', CommandTimeout='30']"
""SELECT [o.Attribute.OptionSet.Options].[Id], [o.Attribute.OptionSet.Options].[Name], [o.Attribute.OptionSet.Options].[OptionSetId], [o.Attribute.OptionSet.Options].[Value]
FROM [Option] AS [o.Attribute.OptionSet.Options]
INNER JOIN (
    SELECT DISTINCT [o.Attribute.OptionSet0].[Id]
    FROM [RegistrationAttribute] AS [o0]
    INNER JOIN [Registration] AS [o.Registration0] ON [o0].[RegistrationId] = [o.Registration0].[Id]
    INNER JOIN [Attribute] AS [o.Attribute0] ON [o0].[AttributeId] = [o.Attribute0].[Id]
    INNER JOIN [OptionSet] AS [o.Attribute.OptionSet0] ON [o.Attribute0].[OptionSetId] = [o.Attribute.OptionSet0].[Id]
    WHERE [o0].[RegistrationId] = @__registrationId_0
) AS [t] ON [o.Attribute.OptionSet.Options].[OptionSetId] = [t].[Id]
ORDER BY [t].[Id]" (0723d8ff)
2019-10-17T13:37:07.4295694+03:00 0HLQITNPRIDFE:00000002 [INF] Executed action method "IgnitisTask.Controllers.HomeController.Details (IgnitisTask)", returned result "Microsoft.AspNetCore.Mvc.ViewResult" in 211.5885ms. (50a9e262)
2019-10-17T13:37:07.4406976+03:00 0HLQITNPRIDFE:00000002 [INF] Executing ViewResult, running view "Details". (c83d0e25)
2019-10-17T13:37:07.5513080+03:00 0HLQITNPRIDFE:00000002 [INF] Executed ViewResult - view "Details" executed in 113.6055ms. (f66409e9)
2019-10-17T13:37:07.5569444+03:00 0HLQITNPRIDFE:00000002 [INF] Executed action "IgnitisTask.Controllers.HomeController.Details (IgnitisTask)" in 357.7897ms (afa2e885)
2019-10-17T13:37:07.5666124+03:00 0HLQITNPRIDFE:00000002 [INF] Request finished in 396.1426ms 200 text/html; charset=utf-8 (791a596a)
2019-10-17T13:37:13.8119271+03:00 0HLQITNPRIDFD:00000003 [INF] Request starting HTTP/1.1 GET http://localhost:44395/RegPoz/2   (ca22a1cb)
2019-10-17T13:37:13.8149468+03:00 0HLQITNPRIDFD:00000003 [INF] Route matched with "{action = \"Details\", controller = \"Home\"}". Executing action "IgnitisTask.Controllers.HomeController.Details (IgnitisTask)" (a44c0341)
2019-10-17T13:37:13.8181339+03:00 0HLQITNPRIDFD:00000003 [INF] Executing action method "IgnitisTask.Controllers.HomeController.Details (IgnitisTask)" with arguments (["2"]) - Validation state: Valid (4e3479ed)
2019-10-17T13:37:13.8209492+03:00 0HLQITNPRIDFD:00000003 [INF] Entity Framework Core "2.1.1-rtm-30846" initialized '"RegistrationContext"' using provider '"Microsoft.EntityFrameworkCore.SqlServer"' with options: "None" (9958f5bb)
2019-10-17T13:37:13.8290573+03:00 0HLQITNPRIDFD:00000003 [INF] Executed DbCommand ("4"ms) [Parameters=["@__registrationId_0='?' (DbType = Int32)"], CommandType='Text', CommandTimeout='30']"
""SELECT [o].[RegistrationId], [o].[AttributeId], [o.Registration].[Id], [o.Registration].[Name], [o.Attribute].[Id], [o.Attribute].[IsBoolean], [o.Attribute].[IsDropdown], [o.Attribute].[IsNumeric], [o.Attribute].[IsSelected], [o.Attribute].[IsString], [o.Attribute].[Name], [o.Attribute].[OptionSetId], [o.Attribute].[SelectedOptionId], [o.Attribute.OptionSet].[Id], [o.Attribute.OptionSet].[Name]
FROM [RegistrationAttribute] AS [o]
INNER JOIN [Registration] AS [o.Registration] ON [o].[RegistrationId] = [o.Registration].[Id]
INNER JOIN [Attribute] AS [o.Attribute] ON [o].[AttributeId] = [o.Attribute].[Id]
INNER JOIN [OptionSet] AS [o.Attribute.OptionSet] ON [o.Attribute].[OptionSetId] = [o.Attribute.OptionSet].[Id]
WHERE [o].[RegistrationId] = @__registrationId_0
ORDER BY [o.Attribute.OptionSet].[Id]" (0723d8ff)
2019-10-17T13:37:13.8323667+03:00 0HLQITNPRIDFD:00000003 [WRN] Get attributes for registration:2, returned no attributes. (df1d0cce)
2019-10-17T13:37:13.8350393+03:00 0HLQITNPRIDFD:00000003 [INF] Executed action method "IgnitisTask.Controllers.HomeController.Details (IgnitisTask)", returned result "Microsoft.AspNetCore.Mvc.ViewResult" in 14.2769ms. (50a9e262)
2019-10-17T13:37:13.8377876+03:00 0HLQITNPRIDFD:00000003 [INF] Executing ViewResult, running view "Details". (c83d0e25)
2019-10-17T13:37:13.8426940+03:00 0HLQITNPRIDFD:00000003 [INF] Executed ViewResult - view "Details" executed in 4.2007ms. (f66409e9)
2019-10-17T13:37:13.8460341+03:00 0HLQITNPRIDFD:00000003 [INF] Executed action "IgnitisTask.Controllers.HomeController.Details (IgnitisTask)" in 27.7995ms (afa2e885)
2019-10-17T13:37:13.8496539+03:00 0HLQITNPRIDFD:00000003 [INF] Request finished in 37.3062ms 200 text/html; charset=utf-8 (791a596a)
2019-10-17T13:37:20.1001037+03:00 0HLQITNPRIDFE:00000003 [INF] Request starting HTTP/1.1 GET http://localhost:44395/RegPoz   (ca22a1cb)
2019-10-17T13:37:20.1042065+03:00 0HLQITNPRIDFE:00000003 [INF] Route matched with "{action = \"Index\", controller = \"Home\"}". Executing action "IgnitisTask.Controllers.HomeController.Index (IgnitisTask)" (a44c0341)
2019-10-17T13:37:20.1073264+03:00 0HLQITNPRIDFE:00000003 [INF] Executing action method "IgnitisTask.Controllers.HomeController.Index (IgnitisTask)" - Validation state: Valid (dad538d7)
2019-10-17T13:37:20.1103428+03:00 0HLQITNPRIDFE:00000003 [INF] Entity Framework Core "2.1.1-rtm-30846" initialized '"RegistrationContext"' using provider '"Microsoft.EntityFrameworkCore.SqlServer"' with options: "None" (9958f5bb)
2019-10-17T13:37:20.1143510+03:00 0HLQITNPRIDFE:00000003 [INF] Executed DbCommand ("1"ms) [Parameters=[""], CommandType='Text', CommandTimeout='30']"
""SELECT [o].[Id], [o].[Name]
FROM [Registration] AS [o]" (0723d8ff)
2019-10-17T13:37:20.1171972+03:00 0HLQITNPRIDFE:00000003 [INF] Executed action method "IgnitisTask.Controllers.HomeController.Index (IgnitisTask)", returned result "Microsoft.AspNetCore.Mvc.ViewResult" in 7.3237ms. (50a9e262)
2019-10-17T13:37:20.1198420+03:00 0HLQITNPRIDFE:00000003 [INF] Executing ViewResult, running view "Index". (c83d0e25)
2019-10-17T13:37:20.1236650+03:00 0HLQITNPRIDFE:00000003 [INF] Executed ViewResult - view "Index" executed in 3.4594ms. (f66409e9)
2019-10-17T13:37:20.1267010+03:00 0HLQITNPRIDFE:00000003 [INF] Executed action "IgnitisTask.Controllers.HomeController.Index (IgnitisTask)" in 19.496ms (afa2e885)
2019-10-17T13:37:20.1300792+03:00 0HLQITNPRIDFE:00000003 [INF] Request finished in 29.6433ms 200 text/html; charset=utf-8 (791a596a)
2019-10-17T13:37:21.3813093+03:00 0HLQITNPRIDFD:00000004 [INF] Request starting HTTP/1.1 GET http://localhost:44395/RegPoz/1   (ca22a1cb)
2019-10-17T13:37:21.3841378+03:00 0HLQITNPRIDFD:00000004 [INF] Route matched with "{action = \"Details\", controller = \"Home\"}". Executing action "IgnitisTask.Controllers.HomeController.Details (IgnitisTask)" (a44c0341)
2019-10-17T13:37:21.3869206+03:00 0HLQITNPRIDFD:00000004 [INF] Executing action method "IgnitisTask.Controllers.HomeController.Details (IgnitisTask)" with arguments (["1"]) - Validation state: Valid (4e3479ed)
2019-10-17T13:37:21.3903098+03:00 0HLQITNPRIDFD:00000004 [INF] Entity Framework Core "2.1.1-rtm-30846" initialized '"RegistrationContext"' using provider '"Microsoft.EntityFrameworkCore.SqlServer"' with options: "None" (9958f5bb)
2019-10-17T13:37:21.3957849+03:00 0HLQITNPRIDFD:00000004 [INF] Executed DbCommand ("1"ms) [Parameters=["@__registrationId_0='?' (DbType = Int32)"], CommandType='Text', CommandTimeout='30']"
""SELECT [o].[RegistrationId], [o].[AttributeId], [o.Registration].[Id], [o.Registration].[Name], [o.Attribute].[Id], [o.Attribute].[IsBoolean], [o.Attribute].[IsDropdown], [o.Attribute].[IsNumeric], [o.Attribute].[IsSelected], [o.Attribute].[IsString], [o.Attribute].[Name], [o.Attribute].[OptionSetId], [o.Attribute].[SelectedOptionId], [o.Attribute.OptionSet].[Id], [o.Attribute.OptionSet].[Name]
FROM [RegistrationAttribute] AS [o]
INNER JOIN [Registration] AS [o.Registration] ON [o].[RegistrationId] = [o.Registration].[Id]
INNER JOIN [Attribute] AS [o.Attribute] ON [o].[AttributeId] = [o.Attribute].[Id]
INNER JOIN [OptionSet] AS [o.Attribute.OptionSet] ON [o.Attribute].[OptionSetId] = [o.Attribute.OptionSet].[Id]
WHERE [o].[RegistrationId] = @__registrationId_0
ORDER BY [o.Attribute.OptionSet].[Id]" (0723d8ff)
2019-10-17T13:37:21.4039224+03:00 0HLQITNPRIDFD:00000004 [INF] Executed DbCommand ("4"ms) [Parameters=["@__registrationId_0='?' (DbType = Int32)"], CommandType='Text', CommandTimeout='30']"
""SELECT [o.Attribute.OptionSet.Options].[Id], [o.Attribute.OptionSet.Options].[Name], [o.Attribute.OptionSet.Options].[OptionSetId], [o.Attribute.OptionSet.Options].[Value]
FROM [Option] AS [o.Attribute.OptionSet.Options]
INNER JOIN (
    SELECT DISTINCT [o.Attribute.OptionSet0].[Id]
    FROM [RegistrationAttribute] AS [o0]
    INNER JOIN [Registration] AS [o.Registration0] ON [o0].[RegistrationId] = [o.Registration0].[Id]
    INNER JOIN [Attribute] AS [o.Attribute0] ON [o0].[AttributeId] = [o.Attribute0].[Id]
    INNER JOIN [OptionSet] AS [o.Attribute.OptionSet0] ON [o.Attribute0].[OptionSetId] = [o.Attribute.OptionSet0].[Id]
    WHERE [o0].[RegistrationId] = @__registrationId_0
) AS [t] ON [o.Attribute.OptionSet.Options].[OptionSetId] = [t].[Id]
ORDER BY [t].[Id]" (0723d8ff)
2019-10-17T13:37:21.4086328+03:00 0HLQITNPRIDFD:00000004 [INF] Executed action method "IgnitisTask.Controllers.HomeController.Details (IgnitisTask)", returned result "Microsoft.AspNetCore.Mvc.ViewResult" in 17.7779ms. (50a9e262)
2019-10-17T13:37:21.4116200+03:00 0HLQITNPRIDFD:00000004 [INF] Executing ViewResult, running view "Details". (c83d0e25)
2019-10-17T13:37:21.4196093+03:00 0HLQITNPRIDFD:00000004 [INF] Executed ViewResult - view "Details" executed in 7.6394ms. (f66409e9)
2019-10-17T13:37:21.4239611+03:00 0HLQITNPRIDFD:00000004 [INF] Executed action "IgnitisTask.Controllers.HomeController.Details (IgnitisTask)" in 35.5382ms (afa2e885)
2019-10-17T13:37:21.4281022+03:00 0HLQITNPRIDFD:00000004 [INF] Request finished in 45.9374ms 200 text/html; charset=utf-8 (791a596a)
2019-10-17T13:37:24.2224757+03:00 0HLQITNPRIDFE:00000004 [INF] Request starting HTTP/1.1 GET http://localhost:44395/RegPoz   (ca22a1cb)
2019-10-17T13:37:24.2252903+03:00 0HLQITNPRIDFE:00000004 [INF] Route matched with "{action = \"Index\", controller = \"Home\"}". Executing action "IgnitisTask.Controllers.HomeController.Index (IgnitisTask)" (a44c0341)
2019-10-17T13:37:24.2281890+03:00 0HLQITNPRIDFE:00000004 [INF] Executing action method "IgnitisTask.Controllers.HomeController.Index (IgnitisTask)" - Validation state: Valid (dad538d7)
2019-10-17T13:37:24.2313475+03:00 0HLQITNPRIDFE:00000004 [INF] Entity Framework Core "2.1.1-rtm-30846" initialized '"RegistrationContext"' using provider '"Microsoft.EntityFrameworkCore.SqlServer"' with options: "None" (9958f5bb)
2019-10-17T13:37:24.2351324+03:00 0HLQITNPRIDFE:00000004 [INF] Executed DbCommand ("1"ms) [Parameters=[""], CommandType='Text', CommandTimeout='30']"
""SELECT [o].[Id], [o].[Name]
FROM [Registration] AS [o]" (0723d8ff)
2019-10-17T13:37:24.2379392+03:00 0HLQITNPRIDFE:00000004 [INF] Executed action method "IgnitisTask.Controllers.HomeController.Index (IgnitisTask)", returned result "Microsoft.AspNetCore.Mvc.ViewResult" in 7.1514ms. (50a9e262)
2019-10-17T13:37:24.2405642+03:00 0HLQITNPRIDFE:00000004 [INF] Executing ViewResult, running view "Index". (c83d0e25)
2019-10-17T13:37:24.2441461+03:00 0HLQITNPRIDFE:00000004 [INF] Executed ViewResult - view "Index" executed in 3.0981ms. (f66409e9)
2019-10-17T13:37:24.2472974+03:00 0HLQITNPRIDFE:00000004 [INF] Executed action "IgnitisTask.Controllers.HomeController.Index (IgnitisTask)" in 18.8991ms (afa2e885)
2019-10-17T13:37:24.2505747+03:00 0HLQITNPRIDFE:00000004 [INF] Request finished in 28.6193ms 200 text/html; charset=utf-8 (791a596a)
2019-10-17T13:37:26.5232621+03:00 0HLQITNPRIDFD:00000005 [INF] Request starting HTTP/1.1 GET http://localhost:44395/   (ca22a1cb)
2019-10-17T13:37:26.5260057+03:00 0HLQITNPRIDFD:00000005 [INF] Route matched with "{action = \"Index\", controller = \"Home\"}". Executing action "IgnitisTask.Controllers.HomeController.Index (IgnitisTask)" (a44c0341)
2019-10-17T13:37:26.5289859+03:00 0HLQITNPRIDFD:00000005 [INF] Executing action method "IgnitisTask.Controllers.HomeController.Index (IgnitisTask)" - Validation state: Valid (dad538d7)
2019-10-17T13:37:26.5319758+03:00 0HLQITNPRIDFD:00000005 [INF] Entity Framework Core "2.1.1-rtm-30846" initialized '"RegistrationContext"' using provider '"Microsoft.EntityFrameworkCore.SqlServer"' with options: "None" (9958f5bb)
2019-10-17T13:37:26.5362561+03:00 0HLQITNPRIDFD:00000005 [INF] Executed DbCommand ("1"ms) [Parameters=[""], CommandType='Text', CommandTimeout='30']"
""SELECT [o].[Id], [o].[Name]
FROM [Registration] AS [o]" (0723d8ff)
2019-10-17T13:37:26.5391830+03:00 0HLQITNPRIDFD:00000005 [INF] Executed action method "IgnitisTask.Controllers.HomeController.Index (IgnitisTask)", returned result "Microsoft.AspNetCore.Mvc.ViewResult" in 7.4955ms. (50a9e262)
2019-10-17T13:37:26.5418853+03:00 0HLQITNPRIDFD:00000005 [INF] Executing ViewResult, running view "Index". (c83d0e25)
2019-10-17T13:37:26.5453465+03:00 0HLQITNPRIDFD:00000005 [INF] Executed ViewResult - view "Index" executed in 3.1959ms. (f66409e9)
2019-10-17T13:37:26.5484265+03:00 0HLQITNPRIDFD:00000005 [INF] Executed action "IgnitisTask.Controllers.HomeController.Index (IgnitisTask)" in 19.3726ms (afa2e885)
2019-10-17T13:37:26.5526288+03:00 0HLQITNPRIDFD:00000005 [INF] Request finished in 28.51ms 200 text/html; charset=utf-8 (791a596a)
2019-10-17T13:37:27.8715478+03:00 0HLQITNPRIDFE:00000005 [INF] Request starting HTTP/1.1 GET http://localhost:44395/RegPoz/1   (ca22a1cb)
2019-10-17T13:37:27.8746034+03:00 0HLQITNPRIDFE:00000005 [INF] Route matched with "{action = \"Details\", controller = \"Home\"}". Executing action "IgnitisTask.Controllers.HomeController.Details (IgnitisTask)" (a44c0341)
2019-10-17T13:37:27.8779486+03:00 0HLQITNPRIDFE:00000005 [INF] Executing action method "IgnitisTask.Controllers.HomeController.Details (IgnitisTask)" with arguments (["1"]) - Validation state: Valid (4e3479ed)
2019-10-17T13:37:27.8809366+03:00 0HLQITNPRIDFE:00000005 [INF] Entity Framework Core "2.1.1-rtm-30846" initialized '"RegistrationContext"' using provider '"Microsoft.EntityFrameworkCore.SqlServer"' with options: "None" (9958f5bb)
2019-10-17T13:37:27.8860022+03:00 0HLQITNPRIDFE:00000005 [INF] Executed DbCommand ("1"ms) [Parameters=["@__registrationId_0='?' (DbType = Int32)"], CommandType='Text', CommandTimeout='30']"
""SELECT [o].[RegistrationId], [o].[AttributeId], [o.Registration].[Id], [o.Registration].[Name], [o.Attribute].[Id], [o.Attribute].[IsBoolean], [o.Attribute].[IsDropdown], [o.Attribute].[IsNumeric], [o.Attribute].[IsSelected], [o.Attribute].[IsString], [o.Attribute].[Name], [o.Attribute].[OptionSetId], [o.Attribute].[SelectedOptionId], [o.Attribute.OptionSet].[Id], [o.Attribute.OptionSet].[Name]
FROM [RegistrationAttribute] AS [o]
INNER JOIN [Registration] AS [o.Registration] ON [o].[RegistrationId] = [o.Registration].[Id]
INNER JOIN [Attribute] AS [o.Attribute] ON [o].[AttributeId] = [o.Attribute].[Id]
INNER JOIN [OptionSet] AS [o.Attribute.OptionSet] ON [o.Attribute].[OptionSetId] = [o.Attribute.OptionSet].[Id]
WHERE [o].[RegistrationId] = @__registrationId_0
ORDER BY [o.Attribute.OptionSet].[Id]" (0723d8ff)
2019-10-17T13:37:27.8903738+03:00 0HLQITNPRIDFE:00000005 [INF] Executed DbCommand ("1"ms) [Parameters=["@__registrationId_0='?' (DbType = Int32)"], CommandType='Text', CommandTimeout='30']"
""SELECT [o.Attribute.OptionSet.Options].[Id], [o.Attribute.OptionSet.Options].[Name], [o.Attribute.OptionSet.Options].[OptionSetId], [o.Attribute.OptionSet.Options].[Value]
FROM [Option] AS [o.Attribute.OptionSet.Options]
INNER JOIN (
    SELECT DISTINCT [o.Attribute.OptionSet0].[Id]
    FROM [RegistrationAttribute] AS [o0]
    INNER JOIN [Registration] AS [o.Registration0] ON [o0].[RegistrationId] = [o.Registration0].[Id]
    INNER JOIN [Attribute] AS [o.Attribute0] ON [o0].[AttributeId] = [o.Attribute0].[Id]
    INNER JOIN [OptionSet] AS [o.Attribute.OptionSet0] ON [o.Attribute0].[OptionSetId] = [o.Attribute.OptionSet0].[Id]
    WHERE [o0].[RegistrationId] = @__registrationId_0
) AS [t] ON [o.Attribute.OptionSet.Options].[OptionSetId] = [t].[Id]
ORDER BY [t].[Id]" (0723d8ff)
2019-10-17T13:37:27.8940906+03:00 0HLQITNPRIDFE:00000005 [INF] Executed action method "IgnitisTask.Controllers.HomeController.Details (IgnitisTask)", returned result "Microsoft.AspNetCore.Mvc.ViewResult" in 13.1551ms. (50a9e262)
2019-10-17T13:37:27.8975005+03:00 0HLQITNPRIDFE:00000005 [INF] Executing ViewResult, running view "Details". (c83d0e25)
2019-10-17T13:37:27.9050299+03:00 0HLQITNPRIDFE:00000005 [INF] Executed ViewResult - view "Details" executed in 7.6311ms. (f66409e9)
2019-10-17T13:37:27.9081971+03:00 0HLQITNPRIDFE:00000005 [INF] Executed action "IgnitisTask.Controllers.HomeController.Details (IgnitisTask)" in 30.4724ms (afa2e885)
2019-10-17T13:37:27.9116519+03:00 0HLQITNPRIDFE:00000005 [INF] Request finished in 40.7684ms 200 text/html; charset=utf-8 (791a596a)
2019-10-17T13:37:41.3581807+03:00 0HLQITNPRIDFD:00000006 [INF] Request starting HTTP/1.1 GET http://localhost:44395/RegPoz/1   (ca22a1cb)
2019-10-17T13:37:41.3621221+03:00 0HLQITNPRIDFD:00000006 [INF] Route matched with "{action = \"Details\", controller = \"Home\"}". Executing action "IgnitisTask.Controllers.HomeController.Details (IgnitisTask)" (a44c0341)
2019-10-17T13:37:41.3658324+03:00 0HLQITNPRIDFD:00000006 [INF] Executing action method "IgnitisTask.Controllers.HomeController.Details (IgnitisTask)" with arguments (["1"]) - Validation state: Valid (4e3479ed)
2019-10-17T13:37:41.3693225+03:00 0HLQITNPRIDFD:00000006 [INF] Entity Framework Core "2.1.1-rtm-30846" initialized '"RegistrationContext"' using provider '"Microsoft.EntityFrameworkCore.SqlServer"' with options: "None" (9958f5bb)
2019-10-17T13:37:41.3746377+03:00 0HLQITNPRIDFD:00000006 [INF] Executed DbCommand ("1"ms) [Parameters=["@__registrationId_0='?' (DbType = Int32)"], CommandType='Text', CommandTimeout='30']"
""SELECT [o].[RegistrationId], [o].[AttributeId], [o.Registration].[Id], [o.Registration].[Name], [o.Attribute].[Id], [o.Attribute].[IsBoolean], [o.Attribute].[IsDropdown], [o.Attribute].[IsNumeric], [o.Attribute].[IsSelected], [o.Attribute].[IsString], [o.Attribute].[Name], [o.Attribute].[OptionSetId], [o.Attribute].[SelectedOptionId], [o.Attribute.OptionSet].[Id], [o.Attribute.OptionSet].[Name]
FROM [RegistrationAttribute] AS [o]
INNER JOIN [Registration] AS [o.Registration] ON [o].[RegistrationId] = [o.Registration].[Id]
INNER JOIN [Attribute] AS [o.Attribute] ON [o].[AttributeId] = [o.Attribute].[Id]
INNER JOIN [OptionSet] AS [o.Attribute.OptionSet] ON [o.Attribute].[OptionSetId] = [o.Attribute.OptionSet].[Id]
WHERE [o].[RegistrationId] = @__registrationId_0
ORDER BY [o.Attribute.OptionSet].[Id]" (0723d8ff)
2019-10-17T13:37:41.3787677+03:00 0HLQITNPRIDFD:00000006 [INF] Executed DbCommand ("1"ms) [Parameters=["@__registrationId_0='?' (DbType = Int32)"], CommandType='Text', CommandTimeout='30']"
""SELECT [o.Attribute.OptionSet.Options].[Id], [o.Attribute.OptionSet.Options].[Name], [o.Attribute.OptionSet.Options].[OptionSetId], [o.Attribute.OptionSet.Options].[Value]
FROM [Option] AS [o.Attribute.OptionSet.Options]
INNER JOIN (
    SELECT DISTINCT [o.Attribute.OptionSet0].[Id]
    FROM [RegistrationAttribute] AS [o0]
    INNER JOIN [Registration] AS [o.Registration0] ON [o0].[RegistrationId] = [o.Registration0].[Id]
    INNER JOIN [Attribute] AS [o.Attribute0] ON [o0].[AttributeId] = [o.Attribute0].[Id]
    INNER JOIN [OptionSet] AS [o.Attribute.OptionSet0] ON [o.Attribute0].[OptionSetId] = [o.Attribute.OptionSet0].[Id]
    WHERE [o0].[RegistrationId] = @__registrationId_0
) AS [t] ON [o.Attribute.OptionSet.Options].[OptionSetId] = [t].[Id]
ORDER BY [t].[Id]" (0723d8ff)
2019-10-17T13:37:41.3824172+03:00 0HLQITNPRIDFD:00000006 [INF] Executed action method "IgnitisTask.Controllers.HomeController.Details (IgnitisTask)", returned result "Microsoft.AspNetCore.Mvc.ViewResult" in 13.5532ms. (50a9e262)
2019-10-17T13:37:41.3857764+03:00 0HLQITNPRIDFD:00000006 [INF] Executing ViewResult, running view "Details". (c83d0e25)
2019-10-17T13:37:41.3938410+03:00 0HLQITNPRIDFD:00000006 [INF] Executed ViewResult - view "Details" executed in 7.6521ms. (f66409e9)
2019-10-17T13:37:41.3982104+03:00 0HLQITNPRIDFD:00000006 [INF] Executed action "IgnitisTask.Controllers.HomeController.Details (IgnitisTask)" in 31.7685ms (afa2e885)
2019-10-17T13:37:41.4022842+03:00 0HLQITNPRIDFD:00000006 [INF] Request finished in 44.6756ms 200 text/html; charset=utf-8 (791a596a)
2019-10-17T13:37:42.3369491+03:00 0HLQITNPRIDFE:00000006 [INF] Request starting HTTP/1.1 GET http://localhost:44395/RegPoz   (ca22a1cb)
2019-10-17T13:37:42.3396808+03:00 0HLQITNPRIDFE:00000006 [INF] Route matched with "{action = \"Index\", controller = \"Home\"}". Executing action "IgnitisTask.Controllers.HomeController.Index (IgnitisTask)" (a44c0341)
2019-10-17T13:37:42.3423997+03:00 0HLQITNPRIDFE:00000006 [INF] Executing action method "IgnitisTask.Controllers.HomeController.Index (IgnitisTask)" - Validation state: Valid (dad538d7)
2019-10-17T13:37:42.3456019+03:00 0HLQITNPRIDFE:00000006 [INF] Entity Framework Core "2.1.1-rtm-30846" initialized '"RegistrationContext"' using provider '"Microsoft.EntityFrameworkCore.SqlServer"' with options: "None" (9958f5bb)
2019-10-17T13:37:42.3500899+03:00 0HLQITNPRIDFE:00000006 [INF] Executed DbCommand ("1"ms) [Parameters=[""], CommandType='Text', CommandTimeout='30']"
""SELECT [o].[Id], [o].[Name]
FROM [Registration] AS [o]" (0723d8ff)
2019-10-17T13:37:42.3528580+03:00 0HLQITNPRIDFE:00000006 [INF] Executed action method "IgnitisTask.Controllers.HomeController.Index (IgnitisTask)", returned result "Microsoft.AspNetCore.Mvc.ViewResult" in 7.9013ms. (50a9e262)
2019-10-17T13:37:42.3556501+03:00 0HLQITNPRIDFE:00000006 [INF] Executing ViewResult, running view "Index". (c83d0e25)
2019-10-17T13:37:42.3593755+03:00 0HLQITNPRIDFE:00000006 [INF] Executed ViewResult - view "Index" executed in 3.3868ms. (f66409e9)
2019-10-17T13:37:42.3632962+03:00 0HLQITNPRIDFE:00000006 [INF] Executed action "IgnitisTask.Controllers.HomeController.Index (IgnitisTask)" in 19.732ms (afa2e885)
2019-10-17T13:37:42.3671249+03:00 0HLQITNPRIDFE:00000006 [INF] Request finished in 29.6309ms 200 text/html; charset=utf-8 (791a596a)
2019-10-17T13:39:28.0998146+03:00  [INF] Entity Framework Core "2.1.1-rtm-30846" initialized '"RegistrationContext"' using provider '"Microsoft.EntityFrameworkCore.SqlServer"' with options: "None" (9958f5bb)
2019-10-17T13:39:28.2543575+03:00  [INF] Executed DbCommand ("24"ms) [Parameters=[""], CommandType='Text', CommandTimeout='30']"
""IF EXISTS (SELECT * FROM INFORMATION_SCHEMA.TABLES WHERE TABLE_TYPE = 'BASE TABLE') SELECT 1 ELSE SELECT 0" (0723d8ff)
2019-10-17T13:39:28.3270511+03:00  [INF] Executed DbCommand ("3"ms) [Parameters=[""], CommandType='Text', CommandTimeout='30']"
""SELECT CASE
    WHEN EXISTS (
        SELECT 1
        FROM [Registration] AS [r])
    THEN CAST(1 AS BIT) ELSE CAST(0 AS BIT)
END" (0723d8ff)
2019-10-17T13:39:28.6387839+03:00 0HLQITP4OED7M:00000001 [INF] Request starting HTTP/1.1 GET http://localhost:44395/   (ca22a1cb)
2019-10-17T13:39:28.6387850+03:00 0HLQITP4OED7N:00000001 [INF] Request starting HTTP/1.1 DEBUG http://localhost:58319/  0 (ca22a1cb)
2019-10-17T13:39:28.6761445+03:00 0HLQITP4OED7N:00000001 [INF] Request finished in 39.0291ms 200  (791a596a)
2019-10-17T13:39:28.8175454+03:00 0HLQITP4OED7M:00000001 [INF] Route matched with "{action = \"Index\", controller = \"Home\"}". Executing action "IgnitisTask.Controllers.HomeController.Index (IgnitisTask)" (a44c0341)
2019-10-17T13:39:28.8299828+03:00 0HLQITP4OED7M:00000001 [INF] Executing action method "IgnitisTask.Controllers.HomeController.Index (IgnitisTask)" - Validation state: Valid (dad538d7)
2019-10-17T13:39:28.8524429+03:00 0HLQITP4OED7M:00000001 [INF] Entity Framework Core "2.1.1-rtm-30846" initialized '"RegistrationContext"' using provider '"Microsoft.EntityFrameworkCore.SqlServer"' with options: "None" (9958f5bb)
2019-10-17T13:39:28.9008597+03:00 0HLQITP4OED7M:00000001 [INF] Executed DbCommand ("8"ms) [Parameters=[""], CommandType='Text', CommandTimeout='30']"
""SELECT [o].[Id], [o].[Name]
FROM [Registration] AS [o]" (0723d8ff)
2019-10-17T13:39:28.9476883+03:00 0HLQITP4OED7M:00000001 [INF] Executed action method "IgnitisTask.Controllers.HomeController.Index (IgnitisTask)", returned result "Microsoft.AspNetCore.Mvc.ViewResult" in 111.9532ms. (50a9e262)
2019-10-17T13:39:28.9684695+03:00 0HLQITP4OED7M:00000001 [INF] Executing ViewResult, running view "Index". (c83d0e25)
2019-10-17T13:39:29.0528395+03:00 0HLQITP4OED7M:00000001 [INF] Executed ViewResult - view "Index" executed in 95.89ms. (f66409e9)
2019-10-17T13:39:29.0565518+03:00 0HLQITP4OED7M:00000001 [INF] Executed action "IgnitisTask.Controllers.HomeController.Index (IgnitisTask)" in 235.5247ms (afa2e885)
2019-10-17T13:39:29.0671261+03:00 0HLQITP4OED7M:00000001 [INF] Request finished in 430.9272ms 200 text/html; charset=utf-8 (791a596a)
2019-10-17T14:24:04.9988136+03:00  [INF] Entity Framework Core "2.1.1-rtm-30846" initialized '"RegistrationContext"' using provider '"Microsoft.EntityFrameworkCore.SqlServer"' with options: "None" (9958f5bb)
2019-10-17T14:24:05.1793583+03:00  [INF] Executed DbCommand ("28"ms) [Parameters=[""], CommandType='Text', CommandTimeout='30']"
""IF EXISTS (SELECT * FROM INFORMATION_SCHEMA.TABLES WHERE TABLE_TYPE = 'BASE TABLE') SELECT 1 ELSE SELECT 0" (0723d8ff)
2019-10-17T14:24:05.2503077+03:00  [INF] Executed DbCommand ("3"ms) [Parameters=[""], CommandType='Text', CommandTimeout='30']"
""SELECT CASE
    WHEN EXISTS (
        SELECT 1
        FROM [Registration] AS [r])
    THEN CAST(1 AS BIT) ELSE CAST(0 AS BIT)
END" (0723d8ff)
2019-10-17T14:24:05.4713942+03:00 0HLQIUI2GFCRF:00000001 [INF] Request starting HTTP/1.1 GET http://localhost:44395/   (ca22a1cb)
2019-10-17T14:24:05.4713944+03:00 0HLQIUI2GFCRG:00000001 [INF] Request starting HTTP/1.1 DEBUG http://localhost:58319/  0 (ca22a1cb)
2019-10-17T14:24:05.5228014+03:00 0HLQIUI2GFCRG:00000001 [INF] Request finished in 54.214ms 200  (791a596a)
2019-10-17T14:24:05.7320950+03:00 0HLQIUI2GFCRF:00000001 [INF] Route matched with "{action = \"Index\", controller = \"Home\"}". Executing action "IgnitisTask.Controllers.HomeController.Index (IgnitisTask)" (a44c0341)
2019-10-17T14:24:05.7472225+03:00 0HLQIUI2GFCRF:00000001 [INF] Executing action method "IgnitisTask.Controllers.HomeController.Index (IgnitisTask)" - Validation state: Valid (dad538d7)
2019-10-17T14:24:05.7661503+03:00 0HLQIUI2GFCRF:00000001 [INF] Entity Framework Core "2.1.1-rtm-30846" initialized '"RegistrationContext"' using provider '"Microsoft.EntityFrameworkCore.SqlServer"' with options: "None" (9958f5bb)
2019-10-17T14:24:05.8293946+03:00 0HLQIUI2GFCRF:00000001 [INF] Executed DbCommand ("12"ms) [Parameters=[""], CommandType='Text', CommandTimeout='30']"
""SELECT [o].[Id], [o].[Name]
FROM [Registration] AS [o]" (0723d8ff)
2019-10-17T14:24:05.8770406+03:00 0HLQIUI2GFCRF:00000001 [INF] Executed action method "IgnitisTask.Controllers.HomeController.Index (IgnitisTask)", returned result "Microsoft.AspNetCore.Mvc.ViewResult" in 123.6869ms. (50a9e262)
2019-10-17T14:24:05.8968460+03:00 0HLQIUI2GFCRF:00000001 [INF] Executing ViewResult, running view "Index". (c83d0e25)
2019-10-17T14:24:05.9885930+03:00 0HLQIUI2GFCRF:00000001 [INF] Executed ViewResult - view "Index" executed in 101.3298ms. (f66409e9)
2019-10-17T14:24:05.9931718+03:00 0HLQIUI2GFCRF:00000001 [INF] Executed action "IgnitisTask.Controllers.HomeController.Index (IgnitisTask)" in 256.6763ms (afa2e885)
2019-10-17T14:24:06.0078721+03:00 0HLQIUI2GFCRF:00000001 [INF] Request finished in 542.4936ms 200 text/html; charset=utf-8 (791a596a)
2019-10-17T14:24:07.1231354+03:00 0HLQIUI2GFCRG:00000002 [INF] Request starting HTTP/1.1 GET http://localhost:44395/RegPoz/1   (ca22a1cb)
2019-10-17T14:24:07.1387250+03:00 0HLQIUI2GFCRG:00000002 [INF] Route matched with "{action = \"Details\", controller = \"Home\"}". Executing action "IgnitisTask.Controllers.HomeController.Details (IgnitisTask)" (a44c0341)
2019-10-17T14:24:07.1579901+03:00 0HLQIUI2GFCRG:00000002 [INF] Executing action method "IgnitisTask.Controllers.HomeController.Details (IgnitisTask)" with arguments (["1"]) - Validation state: Valid (4e3479ed)
2019-10-17T14:24:10.8650610+03:00 0HLQIUI2GFCRG:00000002 [INF] Entity Framework Core "2.1.1-rtm-30846" initialized '"RegistrationContext"' using provider '"Microsoft.EntityFrameworkCore.SqlServer"' with options: "None" (9958f5bb)
2019-10-17T14:24:11.0559481+03:00 0HLQIUI2GFCRG:00000002 [INF] Executed DbCommand ("96"ms) [Parameters=["@__registrationId_0='?' (DbType = Int32)"], CommandType='Text', CommandTimeout='30']"
""SELECT [o].[RegistrationId], [o].[AttributeId], [o.Registration].[Id], [o.Registration].[Name], [o.Attribute].[Id], [o.Attribute].[IsBoolean], [o.Attribute].[IsDropdown], [o.Attribute].[IsNumeric], [o.Attribute].[IsSelected], [o.Attribute].[IsString], [o.Attribute].[Name], [o.Attribute].[OptionSetId], [o.Attribute].[SelectedOptionId], [o.Attribute.OptionSet].[Id], [o.Attribute.OptionSet].[Name]
FROM [RegistrationAttribute] AS [o]
INNER JOIN [Registration] AS [o.Registration] ON [o].[RegistrationId] = [o.Registration].[Id]
INNER JOIN [Attribute] AS [o.Attribute] ON [o].[AttributeId] = [o.Attribute].[Id]
INNER JOIN [OptionSet] AS [o.Attribute.OptionSet] ON [o.Attribute].[OptionSetId] = [o.Attribute.OptionSet].[Id]
WHERE [o].[RegistrationId] = @__registrationId_0
ORDER BY [o.Attribute.OptionSet].[Id]" (0723d8ff)
2019-10-17T14:24:11.1491823+03:00 0HLQIUI2GFCRG:00000002 [INF] Executed DbCommand ("27"ms) [Parameters=["@__registrationId_0='?' (DbType = Int32)"], CommandType='Text', CommandTimeout='30']"
""SELECT [o.Attribute.OptionSet.Options].[Id], [o.Attribute.OptionSet.Options].[Name], [o.Attribute.OptionSet.Options].[OptionSetId], [o.Attribute.OptionSet.Options].[Value]
FROM [Option] AS [o.Attribute.OptionSet.Options]
INNER JOIN (
    SELECT DISTINCT [o.Attribute.OptionSet0].[Id]
    FROM [RegistrationAttribute] AS [o0]
    INNER JOIN [Registration] AS [o.Registration0] ON [o0].[RegistrationId] = [o.Registration0].[Id]
    INNER JOIN [Attribute] AS [o.Attribute0] ON [o0].[AttributeId] = [o.Attribute0].[Id]
    INNER JOIN [OptionSet] AS [o.Attribute.OptionSet0] ON [o.Attribute0].[OptionSetId] = [o.Attribute.OptionSet0].[Id]
    WHERE [o0].[RegistrationId] = @__registrationId_0
) AS [t] ON [o.Attribute.OptionSet.Options].[OptionSetId] = [t].[Id]
ORDER BY [t].[Id]" (0723d8ff)
2019-10-17T14:24:11.1770792+03:00 0HLQIUI2GFCRG:00000002 [INF] Executed action method "IgnitisTask.Controllers.HomeController.Details (IgnitisTask)", returned result "Microsoft.AspNetCore.Mvc.ViewResult" in 4015.4957ms. (50a9e262)
2019-10-17T14:24:11.1876406+03:00 0HLQIUI2GFCRG:00000002 [INF] Executing ViewResult, running view "Details". (c83d0e25)
2019-10-17T14:24:11.3167048+03:00 0HLQIUI2GFCRG:00000002 [INF] Executed ViewResult - view "Details" executed in 132.1899ms. (f66409e9)
2019-10-17T14:24:11.3222477+03:00 0HLQIUI2GFCRG:00000002 [INF] Executed action "IgnitisTask.Controllers.HomeController.Details (IgnitisTask)" in 4180.1255ms (afa2e885)
2019-10-17T14:24:11.3310261+03:00 0HLQIUI2GFCRG:00000002 [INF] Request finished in 4208.1897ms 200 text/html; charset=utf-8 (791a596a)
2019-10-17T14:24:15.6896088+03:00 0HLQIUI2GFCRF:00000002 [INF] Request starting HTTP/1.1 GET http://localhost:44395/RegPoz   (ca22a1cb)
2019-10-17T14:24:15.6950355+03:00 0HLQIUI2GFCRF:00000002 [INF] Route matched with "{action = \"Index\", controller = \"Home\"}". Executing action "IgnitisTask.Controllers.HomeController.Index (IgnitisTask)" (a44c0341)
2019-10-17T14:24:15.6987708+03:00 0HLQIUI2GFCRF:00000002 [INF] Executing action method "IgnitisTask.Controllers.HomeController.Index (IgnitisTask)" - Validation state: Valid (dad538d7)
2019-10-17T14:24:15.7034455+03:00 0HLQIUI2GFCRF:00000002 [INF] Entity Framework Core "2.1.1-rtm-30846" initialized '"RegistrationContext"' using provider '"Microsoft.EntityFrameworkCore.SqlServer"' with options: "None" (9958f5bb)
2019-10-17T14:24:15.7093303+03:00 0HLQIUI2GFCRF:00000002 [INF] Executed DbCommand ("1"ms) [Parameters=[""], CommandType='Text', CommandTimeout='30']"
""SELECT [o].[Id], [o].[Name]
FROM [Registration] AS [o]" (0723d8ff)
2019-10-17T14:24:15.7133753+03:00 0HLQIUI2GFCRF:00000002 [INF] Executed action method "IgnitisTask.Controllers.HomeController.Index (IgnitisTask)", returned result "Microsoft.AspNetCore.Mvc.ViewResult" in 10.974ms. (50a9e262)
2019-10-17T14:24:15.7172215+03:00 0HLQIUI2GFCRF:00000002 [INF] Executing ViewResult, running view "Index". (c83d0e25)
2019-10-17T14:24:15.7223951+03:00 0HLQIUI2GFCRF:00000002 [INF] Executed ViewResult - view "Index" executed in 4.8086ms. (f66409e9)
2019-10-17T14:24:15.7262592+03:00 0HLQIUI2GFCRF:00000002 [INF] Executed action "IgnitisTask.Controllers.HomeController.Index (IgnitisTask)" in 27.3971ms (afa2e885)
2019-10-17T14:24:15.7305419+03:00 0HLQIUI2GFCRF:00000002 [INF] Request finished in 42.2503ms 200 text/html; charset=utf-8 (791a596a)
2019-10-17T14:24:16.9231613+03:00 0HLQIUI2GFCRG:00000003 [INF] Request starting HTTP/1.1 GET http://localhost:44395/RegPoz/1   (ca22a1cb)
2019-10-17T14:24:16.9260879+03:00 0HLQIUI2GFCRG:00000003 [INF] Route matched with "{action = \"Details\", controller = \"Home\"}". Executing action "IgnitisTask.Controllers.HomeController.Details (IgnitisTask)" (a44c0341)
2019-10-17T14:24:16.9291925+03:00 0HLQIUI2GFCRG:00000003 [INF] Executing action method "IgnitisTask.Controllers.HomeController.Details (IgnitisTask)" with arguments (["1"]) - Validation state: Valid (4e3479ed)
2019-10-17T14:24:16.9320309+03:00 0HLQIUI2GFCRG:00000003 [INF] Entity Framework Core "2.1.1-rtm-30846" initialized '"RegistrationContext"' using provider '"Microsoft.EntityFrameworkCore.SqlServer"' with options: "None" (9958f5bb)
2019-10-17T14:24:16.9403518+03:00 0HLQIUI2GFCRG:00000003 [INF] Executed DbCommand ("4"ms) [Parameters=["@__registrationId_0='?' (DbType = Int32)"], CommandType='Text', CommandTimeout='30']"
""SELECT [o].[RegistrationId], [o].[AttributeId], [o.Registration].[Id], [o.Registration].[Name], [o.Attribute].[Id], [o.Attribute].[IsBoolean], [o.Attribute].[IsDropdown], [o.Attribute].[IsNumeric], [o.Attribute].[IsSelected], [o.Attribute].[IsString], [o.Attribute].[Name], [o.Attribute].[OptionSetId], [o.Attribute].[SelectedOptionId], [o.Attribute.OptionSet].[Id], [o.Attribute.OptionSet].[Name]
FROM [RegistrationAttribute] AS [o]
INNER JOIN [Registration] AS [o.Registration] ON [o].[RegistrationId] = [o.Registration].[Id]
INNER JOIN [Attribute] AS [o.Attribute] ON [o].[AttributeId] = [o.Attribute].[Id]
INNER JOIN [OptionSet] AS [o.Attribute.OptionSet] ON [o.Attribute].[OptionSetId] = [o.Attribute.OptionSet].[Id]
WHERE [o].[RegistrationId] = @__registrationId_0
ORDER BY [o.Attribute.OptionSet].[Id]" (0723d8ff)
2019-10-17T14:24:16.9486119+03:00 0HLQIUI2GFCRG:00000003 [INF] Executed DbCommand ("5"ms) [Parameters=["@__registrationId_0='?' (DbType = Int32)"], CommandType='Text', CommandTimeout='30']"
""SELECT [o.Attribute.OptionSet.Options].[Id], [o.Attribute.OptionSet.Options].[Name], [o.Attribute.OptionSet.Options].[OptionSetId], [o.Attribute.OptionSet.Options].[Value]
FROM [Option] AS [o.Attribute.OptionSet.Options]
INNER JOIN (
    SELECT DISTINCT [o.Attribute.OptionSet0].[Id]
    FROM [RegistrationAttribute] AS [o0]
    INNER JOIN [Registration] AS [o.Registration0] ON [o0].[RegistrationId] = [o.Registration0].[Id]
    INNER JOIN [Attribute] AS [o.Attribute0] ON [o0].[AttributeId] = [o.Attribute0].[Id]
    INNER JOIN [OptionSet] AS [o.Attribute.OptionSet0] ON [o.Attribute0].[OptionSetId] = [o.Attribute.OptionSet0].[Id]
    WHERE [o0].[RegistrationId] = @__registrationId_0
) AS [t] ON [o.Attribute.OptionSet.Options].[OptionSetId] = [t].[Id]
ORDER BY [t].[Id]" (0723d8ff)
2019-10-17T14:24:16.9522490+03:00 0HLQIUI2GFCRG:00000003 [INF] Executed action method "IgnitisTask.Controllers.HomeController.Details (IgnitisTask)", returned result "Microsoft.AspNetCore.Mvc.ViewResult" in 20.2379ms. (50a9e262)
2019-10-17T14:24:16.9553528+03:00 0HLQIUI2GFCRG:00000003 [INF] Executing ViewResult, running view "Details". (c83d0e25)
2019-10-17T14:24:16.9634119+03:00 0HLQIUI2GFCRG:00000003 [INF] Executed ViewResult - view "Details" executed in 8.0899ms. (f66409e9)
2019-10-17T14:24:16.9667104+03:00 0HLQIUI2GFCRG:00000003 [INF] Executed action "IgnitisTask.Controllers.HomeController.Details (IgnitisTask)" in 37.4006ms (afa2e885)
2019-10-17T14:24:16.9706240+03:00 0HLQIUI2GFCRG:00000003 [INF] Request finished in 47.2656ms 200 text/html; charset=utf-8 (791a596a)
